<?xml version="1.0" encoding="utf-8"?>
<!-- Generator: Adobe Illustrator 22.0.0, SVG Export Plug-In . SVG Version: 6.00 Build 0)  -->
<svg version="1.1" id="レイヤー_1" xmlns="http://www.w3.org/2000/svg" xmlns:xlink="http://www.w3.org/1999/xlink" x="0px"
	 y="0px" viewBox="0 0 18 10" enable-background="new 0 0 18 10" xml:space="preserve">
<polygon points="13.246,0 12.553,0.729 16.124,4.485 0,4.485 0,5.515 16.124,5.515 12.553,9.271 13.246,10 18,5 "/>
<rect x="-5.355" y="-4.232" width="3.983" height="1.436"/>
<g>
</g>
<g>
</g>
<g>
</g>
<g>
</g>
<g>
</g>
<g>
</g>
</svg>
