<?xml version="1.0" encoding="utf-8"?>
<!-- Generator: Adobe Illustrator 24.0.3, SVG Export Plug-In . SVG Version: 6.00 Build 0)  -->
<svg version="1.1" id="レイヤー_1" xmlns="http://www.w3.org/2000/svg" xmlns:xlink="http://www.w3.org/1999/xlink" x="0px"
	 y="0px" viewBox="0 0 17 5" style="enable-background:new 0 0 17 5;" xml:space="preserve">
<polygon points="16.8,5 0,5 0,4 14.4,4 6.9,0.9 7.3,0 17,4.1 "/>
</svg>
