<?xml version="1.0" encoding="utf-8"?>
<!-- Generator: Adobe Illustrator 24.0.3, SVG Export Plug-In . SVG Version: 6.00 Build 0)  -->
<svg version="1.1" id="レイヤー_1" xmlns="http://www.w3.org/2000/svg" xmlns:xlink="http://www.w3.org/1999/xlink" x="0px"
	 y="0px" viewBox="0 0 23 23" style="enable-background:new 0 0 23 23;" xml:space="preserve">
<style type="text/css">
	.st0{fill:#FFFFFF;}
</style>
<g>
	<path class="st0" d="M22.8,18.1L19,22.6c-0.3,0.4-0.8,0.5-1.2,0.2c0,0-1.2-0.6-2.2-1.2c-2.6-1.5-5.7-4.1-7.9-6.3
		c-2.2-2.2-4.8-5.3-6.3-7.9C0.7,6.5,0.1,5.3,0.1,5.3C-0.1,4.8,0,4.3,0.4,4l4.5-3.8c0.4-0.3,1-0.3,1.4,0.1l3.6,3.6
		c0.4,0.4,0.4,0.9,0.1,1.3L8.4,7.1C8.1,7.5,8.1,8,8.4,8.4c0,0,1.1,1.6,2.8,3.4c1.8,1.8,3.4,2.8,3.4,2.8c0.4,0.3,0.9,0.3,1.3,0
		l1.9-1.5c0.4-0.3,1-0.3,1.3,0.1l3.6,3.6C23.1,17.1,23.1,17.7,22.8,18.1z"/>
</g>
</svg>
