<?xml version="1.0" encoding="utf-8"?>
<!-- Generator: Adobe Illustrator 24.0.3, SVG Export Plug-In . SVG Version: 6.00 Build 0)  -->
<svg version="1.1" id="レイヤー_1" xmlns="http://www.w3.org/2000/svg" xmlns:xlink="http://www.w3.org/1999/xlink" x="0px"
	 y="0px" viewBox="0 0 365 35" style="enable-background:new 0 0 365 35;" xml:space="preserve">
<style type="text/css">
	.st0{fill:#D71718;}
	.st1{fill:#9A1E23;}
	.st2{fill:#231815;}
</style>
<g>
	<g>
		<g>
			<g>
				<g>
					<path class="st0" d="M41.7,0.9C25.2-4.4,17.4,14.9,0.6,7.7C0.2,7.5-0.1,7.9,0,8.2c0.8,1.6,1.7,3.1,2.6,4.6
						c3.5,5.9,2.9,8.9,2.5,14.8l-1,5.4c0,0.6,0.4,1.1,1,1.2c0.6,0,1.1-0.4,1.2-1l0.3-1.1c0.4-2.2,2.3-4.1,4.9-5
						c6.4-2.1,12.3-0.6,18.9-4.4C38.6,18,34.6,7.7,41.8,1.6C42,1.4,42,1,41.7,0.9z"/>
				</g>
			</g>
			<g>
				<path class="st1" d="M28.3,13.7c-2.7,0.3,0.6,1.6,1.4,4.2c0.7,2.3,0.6,4.9-0.3,5.5c0.3-0.2,0.7-0.4,1-0.6
					c6.7-3.9,5.3-11.5,8.4-17.4l0,0C36.9,8.5,32.5,13.3,28.3,13.7z"/>
			</g>
		</g>
		<g>
			<g>
				<g>
					<path d="M98.2,34.3c0.5,0.2,1.1,0.3,1.8,0.3c0.6,0,1.2-0.1,1.7-0.3c0.5-0.2,0.9-0.4,1.3-0.7c0.3-0.3,0.6-0.6,0.8-1
						c0.2-0.4,0.3-0.8,0.3-1.2c0-0.6-0.1-1-0.4-1.4c-0.3-0.4-0.6-0.7-1-0.9c-0.4-0.2-0.8-0.4-1.3-0.6c-0.5-0.2-0.9-0.3-1.3-0.4
						c-0.4-0.1-0.8-0.3-1-0.4c-0.3-0.2-0.5-0.4-0.5-0.6c0-0.2,0.1-0.5,0.4-0.7c0.2-0.2,0.6-0.3,1.1-0.3c0.4,0,0.7,0,1,0.1
						c0.3,0.1,0.5,0.2,0.7,0.3c0.2,0.1,0.4,0.2,0.5,0.4l1.5-1.5c-0.2-0.3-0.5-0.5-0.9-0.7c-0.3-0.2-0.7-0.4-1.2-0.5
						c-0.5-0.2-1-0.3-1.7-0.3c-0.6,0-1.1,0.1-1.6,0.3c-0.5,0.2-0.9,0.4-1.2,0.7c-0.3,0.3-0.6,0.6-0.8,1c-0.2,0.4-0.3,0.8-0.3,1.2
						c0,0.6,0.1,1,0.4,1.4c0.3,0.4,0.6,0.7,1,0.9c0.4,0.2,0.8,0.4,1.3,0.6c0.5,0.2,0.9,0.3,1.3,0.4c0.4,0.1,0.7,0.3,1,0.4
						c0.3,0.2,0.5,0.4,0.5,0.6c0,0.3-0.1,0.6-0.4,0.8c-0.3,0.2-0.7,0.3-1.3,0.3c-0.4,0-0.8-0.1-1.1-0.2c-0.3-0.1-0.6-0.3-0.9-0.4
						c-0.2-0.2-0.5-0.4-0.7-0.6l-1.5,1.5c0.3,0.3,0.6,0.6,1,0.9C97.3,33.9,97.7,34.1,98.2,34.3z"/>
					<path d="M108,32c0,1.9,0.5,2.4,2.1,2.4h2.6l-0.7-2.6h-1.3c-0.5,0-0.5-0.6-0.5-1.3v-4h2.4v-2.1h-2.4V22h-2v1.2
						c0,0.4-0.1,0.7-0.3,0.9c-0.2,0.2-0.5,0.3-0.9,0.3h-1v2.1h1.9V32z"/>
					<path d="M116.2,34.4c0.4,0,0.7-0.1,1-0.4c0.3-0.3,0.4-0.6,0.4-1c0-0.4-0.1-0.7-0.4-1c-0.3-0.3-0.6-0.4-1-0.4
						c-0.4,0-0.7,0.1-1,0.4c-0.3,0.3-0.4,0.6-0.4,1c0,0.4,0.1,0.7,0.4,1C115.5,34.3,115.8,34.4,116.2,34.4z"/>
					<path d="M78.3,34.3v-5.9c0-1.2,0.9-2.2,2.1-2.2c1.1,0,2.1,1,2.1,2.2v5.9c0,0,0,0.1,0.1,0.1h2.3c0,0,0.1,0,0.1-0.1v-5.9
						c0-2.5-2-4.6-4.5-4.6c-1.3,0-2.4,0.5-3.3,1.4l0,0l0,0c-0.9-0.9-2-1.4-3.3-1.4c-2.5,0-4.5,2.1-4.5,4.6v5.9c0,0,0,0.1,0.1,0.1
						h2.3c0,0,0.1,0,0.1-0.1v-5.9c0-1.2,0.9-2.2,2.1-2.2c1.1,0,2.1,1,2.1,2.2v5.9c0,0,0,0.1,0.1,0.1L78.3,34.3
						C78.3,34.4,78.3,34.4,78.3,34.3z"/>
					<path d="M54.4,23.9h-2.2c-2.5,0-4.5,2.1-4.5,4.6v5.9c0,0,0,0.1,0.1,0.1H50c0,0,0.1,0,0.1-0.1v-5.9c0-1.2,0.9-2.2,2.1-2.2h2.2
						c0,0,0.1,0,0.1-0.1L54.4,23.9C54.5,23.9,54.4,23.9,54.4,23.9z"/>
					<path d="M61.5,34.6c3,0,5.4-2.4,5.4-5.4c0-3-2.4-5.4-5.4-5.4c-3,0-5.4,2.4-5.4,5.4C56.1,32.2,58.5,34.6,61.5,34.6z M58.5,29.2
						c0-1.6,1.3-2.9,3-2.9c1.6,0,3,1.3,3,2.9c0,1.6-1.3,2.9-3,2.9C59.8,32.2,58.5,30.8,58.5,29.2z"/>
					<path class="st0" d="M88.6,18.9c0.2,0.1,0.4,0.3,0.4,0.5c0.1,0.2,0.1,0.9,0.1,2v13h3.3V14.1h-1.8c-0.9,1.2-2.2,1.9-4,2.3v2.3
						H87C87.9,18.7,88.4,18.8,88.6,18.9z"/>
					<path d="M40.8,34.3v-3.6c0-0.4,0.1-0.7,0.3-0.9c0.2-0.2,0.5-0.3,0.9-0.3h0.9c0,0,0,0,0,0h1.4c0,0,0.1,0,0.1-0.1v-2.2
						c0,0,0-0.1-0.1-0.1h-3.5v-3.3c0-0.4,0.1-0.7,0.3-0.9c0.2-0.2,0.5-0.3,0.9-0.3h5.5c0,0,0.1,0,0.1-0.1v-2.1c0,0,0-0.1-0.1-0.1
						h-7.6c-1.3,0-1.4,0.9-1.4,1.2l0,0.9v11.9c0,0,0,0.1,0.1,0.1L40.8,34.3C40.8,34.4,40.8,34.4,40.8,34.3z"/>
				</g>
			</g>
			<path d="M199.4,31.8c-0.3-0.3-0.7-0.4-1.1-0.4c-0.4,0-0.8,0.1-1.1,0.4c-0.3,0.3-0.4,0.7-0.4,1.1c0,0.4,0.1,0.8,0.4,1.1
				c0.3,0.3,0.7,0.4,1.1,0.4c0.4,0,0.8-0.1,1.1-0.4c0.3-0.3,0.4-0.7,0.4-1.1C199.9,32.4,199.7,32.1,199.4,31.8z"/>
			<path class="st0" d="M126.7,30.4L126.7,30.4c-0.3-0.3-0.4-0.8-0.4-1.4V11.3h-3.9V31l0,1.5c0,1,0.6,2,2.3,2h12.2v-3.7H128
				C127.4,30.8,127,30.7,126.7,30.4z"/>
			<path class="st2" d="M151.7,19.2c-1.4-1-3.2-1.7-5-1.7c-4.7,0-8.5,3.8-8.5,8.5c0,4.7,3.8,8.5,8.5,8.5c1.9,0,3.6-0.6,5-1.7v1.6
				h3.6V17.6h-3.6V19.2z M146.6,30.7c-2.6,0-4.8-2.1-4.8-4.7c0-2.6,2.1-4.7,4.8-4.7c2.6,0,4.8,2.1,4.8,4.7
				C151.4,28.6,149.2,30.7,146.6,30.7z"/>
			<path class="st0" d="M168.1,17.5c-1.9,0-3.6,0.6-5,1.7v-7.9h-3.6v23.1h3.6v-1.6c1.4,1,3.2,1.7,5,1.7c4.7,0,8.5-3.8,8.5-8.5
				C176.6,21.3,172.8,17.5,168.1,17.5z M168.1,30.7c-2.6,0-4.8-2.1-4.8-4.7c0-2.6,2.1-4.7,4.8-4.7c2.6,0,4.8,2.1,4.8,4.7
				C172.9,28.6,170.7,30.7,168.1,30.7z"/>
			<path class="st2" d="M187.8,17.5c-4.7,0-8.5,3.8-8.5,8.5c0,4.7,3.8,8.5,8.5,8.5c4.7,0,8.5-3.8,8.5-8.5
				C196.3,21.3,192.5,17.5,187.8,17.5z M187.8,30.7c-2.6,0-4.8-2.1-4.8-4.7c0-2.6,2.1-4.7,4.8-4.7c2.6,0,4.8,2.1,4.8,4.7
				C192.6,28.6,190.4,30.7,187.8,30.7z"/>
		</g>
	</g>
	<g>
		<path class="st0" d="M205.7,12.5h15.9v3.8h-12v5h9.5v3.8h-9.5v5.7h12.3v3.8h-16.3V12.5z"/>
		<path class="st0" d="M232,23l-7.3-10.5h4.7l5.1,7.7l5.1-7.7h4.7L237.1,23l7.9,11.5h-4.7l-5.7-8.7l-5.7,8.7h-4.7L232,23z"/>
		<path class="st0" d="M248.8,12.5h9.2c1.1,0,2.1,0.2,3,0.6c0.9,0.4,1.7,0.9,2.4,1.5c0.7,0.7,1.2,1.4,1.6,2.3
			c0.4,0.9,0.6,1.8,0.6,2.9c0,1-0.2,2-0.6,2.9c-0.4,0.9-0.9,1.6-1.6,2.3c-0.7,0.7-1.5,1.2-2.4,1.5c-0.9,0.4-2,0.6-3,0.6h-5.2v7.6
			h-3.9V12.5z M257.8,23.4c0.5,0,1-0.1,1.4-0.3c0.4-0.2,0.8-0.4,1.2-0.8c0.3-0.3,0.6-0.7,0.8-1.1c0.2-0.4,0.3-0.9,0.3-1.4
			c0-0.5-0.1-1-0.3-1.4c-0.2-0.4-0.4-0.8-0.8-1.1c-0.3-0.3-0.7-0.6-1.2-0.8s-0.9-0.3-1.4-0.3h-5.1v7.2H257.8z"/>
		<path class="st0" d="M280.2,35c-1.7,0-3.2-0.3-4.7-0.9c-1.4-0.6-2.7-1.4-3.8-2.5c-1.1-1-1.9-2.3-2.5-3.7c-0.6-1.4-0.9-2.9-0.9-4.5
			c0-1.6,0.3-3.1,0.9-4.5c0.6-1.4,1.4-2.6,2.5-3.7c1.1-1,2.3-1.9,3.8-2.5c1.4-0.6,3-0.9,4.7-0.9c1.7,0,3.2,0.3,4.7,0.9
			c1.4,0.6,2.7,1.4,3.8,2.5c1.1,1,1.9,2.3,2.5,3.7c0.6,1.4,0.9,2.9,0.9,4.5c0,1.6-0.3,3.1-0.9,4.5c-0.6,1.4-1.4,2.6-2.5,3.7
			c-1.1,1-2.3,1.9-3.8,2.5C283.4,34.7,281.9,35,280.2,35z M280.2,31.2c1.1,0,2.1-0.2,3.1-0.6c0.9-0.4,1.8-0.9,2.5-1.6
			c0.7-0.7,1.2-1.5,1.6-2.4c0.4-0.9,0.6-2,0.6-3.1c0-1.1-0.2-2.1-0.6-3.1c-0.4-0.9-0.9-1.8-1.6-2.5c-0.7-0.7-1.5-1.2-2.5-1.6
			c-0.9-0.4-2-0.6-3.1-0.6c-1.1,0-2.1,0.2-3.1,0.6c-0.9,0.4-1.8,0.9-2.4,1.6c-0.7,0.7-1.2,1.5-1.6,2.5c-0.4,0.9-0.6,2-0.6,3.1
			c0,1.1,0.2,2.1,0.6,3.1c0.4,0.9,0.9,1.7,1.6,2.4c0.7,0.7,1.5,1.2,2.4,1.6C278.1,31,279.1,31.2,280.2,31.2z"/>
		<path class="st2" d="M296.3,31.2c0.3-1,0.7-1.8,1.3-2.6c0.5-0.8,1.1-1.4,1.8-2c0.7-0.6,1.4-1.1,2.1-1.6c0.7-0.5,1.4-0.9,2.1-1.4
			c0.7-0.4,1.3-0.9,1.8-1.3c0.5-0.5,0.9-0.9,1.3-1.4c0.3-0.5,0.5-1.1,0.5-1.7c0-0.9-0.3-1.7-1-2.4c-0.7-0.6-1.5-0.9-2.7-0.9
			c-0.8,0-1.5,0.2-2,0.5c-0.5,0.3-0.9,0.7-1.3,1c-0.4,0.4-0.7,0.9-0.9,1.5l-3.2-1.6c0.3-1,0.8-1.8,1.5-2.6c0.3-0.3,0.6-0.6,1-0.9
			c0.4-0.3,0.8-0.6,1.3-0.8c0.5-0.3,1-0.5,1.6-0.6c0.6-0.1,1.3-0.2,2-0.2c1.1,0,2.2,0.2,3.1,0.5c0.9,0.4,1.7,0.8,2.4,1.5
			c0.7,0.6,1.2,1.3,1.5,2.2c0.4,0.8,0.5,1.8,0.5,2.7c0,1.1-0.2,2-0.6,2.8c-0.4,0.8-0.9,1.5-1.5,2.1s-1.3,1.2-2.1,1.7
			c-0.8,0.5-1.6,1-2.3,1.6c-0.8,0.5-1.5,1.1-2.2,1.6c-0.7,0.6-1.2,1.2-1.6,2H311v3.8h-15.2C295.8,33.3,296,32.2,296.3,31.2z"/>
		<path class="st2" d="M324.3,35c-1.2,0-2.4-0.3-3.5-0.8c-1.1-0.5-2.1-1.3-3-2.3c-0.9-1-1.5-2.2-2.1-3.6c-0.5-1.4-0.8-3-0.8-4.8
			c0-1.8,0.3-3.4,0.8-4.8c0.5-1.4,1.2-2.6,2.1-3.6c0.9-1,1.8-1.7,3-2.3c1.1-0.5,2.3-0.8,3.5-0.8s2.4,0.3,3.5,0.8
			c1.1,0.5,2.1,1.3,3,2.3c0.9,1,1.5,2.2,2.1,3.6c0.5,1.4,0.8,3,0.8,4.8c0,1.8-0.3,3.4-0.8,4.8c-0.5,1.4-1.2,2.6-2.1,3.6
			c-0.9,1-1.8,1.7-3,2.3C326.7,34.7,325.5,35,324.3,35z M324.3,31.2c0.7,0,1.3-0.2,1.9-0.5c0.6-0.3,1.2-0.8,1.7-1.4
			c0.5-0.6,0.9-1.4,1.2-2.4c0.3-1,0.4-2.1,0.4-3.4c0-1.3-0.1-2.4-0.4-3.4c-0.3-1-0.7-1.8-1.2-2.4c-0.5-0.6-1-1.1-1.7-1.4
			c-0.6-0.3-1.3-0.5-1.9-0.5s-1.3,0.2-1.9,0.5c-0.6,0.3-1.2,0.8-1.7,1.4c-0.5,0.6-0.9,1.4-1.2,2.4c-0.3,1-0.4,2.1-0.4,3.4
			c0,1.3,0.1,2.4,0.4,3.4c0.3,1,0.7,1.8,1.2,2.4c0.5,0.6,1,1.1,1.7,1.4C322.9,31.1,323.6,31.2,324.3,31.2z"/>
		<path class="st2" d="M337.2,31.2c0.3-1,0.7-1.8,1.3-2.6c0.5-0.8,1.1-1.4,1.8-2c0.7-0.6,1.4-1.1,2.1-1.6c0.7-0.5,1.4-0.9,2.1-1.4
			c0.7-0.4,1.3-0.9,1.8-1.3c0.5-0.5,0.9-0.9,1.3-1.4c0.3-0.5,0.5-1.1,0.5-1.7c0-0.9-0.3-1.7-1-2.4c-0.7-0.6-1.5-0.9-2.7-0.9
			c-0.8,0-1.5,0.2-2,0.5c-0.5,0.3-0.9,0.7-1.3,1c-0.4,0.4-0.7,0.9-0.9,1.5l-3.2-1.6c0.3-1,0.8-1.8,1.5-2.6c0.3-0.3,0.6-0.6,1-0.9
			c0.4-0.3,0.8-0.6,1.3-0.8c0.5-0.3,1-0.5,1.6-0.6c0.6-0.1,1.3-0.2,2-0.2c1.1,0,2.2,0.2,3.1,0.5c0.9,0.4,1.7,0.8,2.4,1.5
			c0.7,0.6,1.2,1.3,1.5,2.2c0.4,0.8,0.5,1.8,0.5,2.7c0,1.1-0.2,2-0.6,2.8c-0.4,0.8-0.9,1.5-1.5,2.1s-1.3,1.2-2.1,1.7
			c-0.8,0.5-1.6,1-2.3,1.6c-0.8,0.5-1.5,1.1-2.2,1.6c-0.7,0.6-1.2,1.2-1.6,2h10.3v3.8h-15.2C336.7,33.3,336.9,32.2,337.2,31.2z"/>
		<path class="st2" d="M361.1,18h-3.9v-2.5c1.4-0.2,2.5-0.6,3.3-1.1c0.7-0.6,1.2-1.2,1.5-1.8h3.2v22h-3.9V18z"/>
	</g>
</g>
</svg>
