<?xml version="1.0" encoding="utf-8"?>
<!-- Generator: Adobe Illustrator 24.0.3, SVG Export Plug-In . SVG Version: 6.00 Build 0)  -->
<svg version="1.1" id="レイヤー_1" xmlns="http://www.w3.org/2000/svg" xmlns:xlink="http://www.w3.org/1999/xlink" x="0px"
	 y="0px" viewBox="0 0 278 20" style="enable-background:new 0 0 278 20;" xml:space="preserve">
<style type="text/css">
	.st0{fill:#FFFFFF;}
</style>
<g>
	<g>
		<g>
			<g>
				<g>
					<path class="st0" d="M50.9,19.3c0.4,0.2,0.9,0.2,1.5,0.2c0.5,0,1-0.1,1.5-0.2c0.4-0.1,0.8-0.3,1.1-0.6c0.3-0.2,0.5-0.5,0.7-0.9
						c0.2-0.3,0.2-0.7,0.2-1c0-0.5-0.1-0.9-0.3-1.2c-0.2-0.3-0.5-0.6-0.8-0.8c-0.3-0.2-0.7-0.4-1.1-0.5c-0.4-0.1-0.8-0.3-1.1-0.4
						c-0.3-0.1-0.6-0.2-0.9-0.3c-0.3-0.1-0.4-0.3-0.4-0.5c0-0.2,0.1-0.4,0.3-0.6c0.2-0.2,0.5-0.2,1-0.2c0.3,0,0.6,0,0.8,0.1
						c0.2,0.1,0.5,0.2,0.6,0.3c0.2,0.1,0.3,0.2,0.5,0.3l1.3-1.2c-0.2-0.2-0.5-0.4-0.7-0.6c-0.3-0.2-0.6-0.3-1-0.5
						c-0.4-0.1-0.9-0.2-1.4-0.2c-0.5,0-1,0.1-1.4,0.2c-0.4,0.1-0.8,0.3-1,0.6c-0.3,0.2-0.5,0.5-0.6,0.8c-0.1,0.3-0.2,0.6-0.2,1
						c0,0.5,0.1,0.9,0.3,1.2c0.2,0.3,0.5,0.6,0.8,0.8c0.3,0.2,0.7,0.4,1.1,0.5c0.4,0.1,0.8,0.3,1.1,0.4c0.3,0.1,0.6,0.2,0.9,0.3
						c0.3,0.1,0.4,0.3,0.4,0.5c0,0.3-0.1,0.5-0.4,0.7c-0.2,0.2-0.6,0.3-1.1,0.3c-0.4,0-0.7-0.1-1-0.2c-0.3-0.1-0.5-0.2-0.7-0.4
						c-0.2-0.1-0.4-0.3-0.6-0.5L48.9,18c0.2,0.3,0.5,0.5,0.9,0.7C50.1,18.9,50.5,19.1,50.9,19.3z"/>
					<path class="st0" d="M59.2,17.4c0,1.6,0.4,2,1.8,2h2.2l-0.6-2.1h-1.1c-0.4,0-0.4-0.5-0.4-1.1v-3.4h2V11h-2V9h-1.7v1
						c0,0.4-0.1,0.6-0.2,0.8C59,11,58.8,11,58.4,11h-0.8v1.8h1.6V17.4z"/>
					<path class="st0" d="M66.2,19.4c0.3,0,0.6-0.1,0.9-0.3c0.2-0.2,0.3-0.5,0.3-0.8c0-0.3-0.1-0.6-0.3-0.8
						c-0.2-0.2-0.5-0.3-0.9-0.3c-0.3,0-0.6,0.1-0.9,0.3c-0.2,0.2-0.3,0.5-0.3,0.8c0,0.3,0.1,0.6,0.3,0.8
						C65.6,19.3,65.9,19.4,66.2,19.4z"/>
					<path class="st0" d="M33.9,19.3v-4.9c0-1,0.8-1.8,1.8-1.8c1,0,1.8,0.8,1.8,1.8v4.9c0,0,0,0.1,0.1,0.1h2c0,0,0.1,0,0.1-0.1v-4.9
						c0-2.1-1.7-3.9-3.9-3.9c-1.1,0-2.1,0.4-2.8,1.2l0,0l0,0c-0.7-0.8-1.7-1.2-2.8-1.2c-2.1,0-3.9,1.7-3.9,3.9v4.9
						c0,0,0,0.1,0.1,0.1h2c0,0,0.1,0,0.1-0.1v-4.9c0-1,0.8-1.8,1.8-1.8c1,0,1.8,0.8,1.8,1.8v4.9c0,0,0,0.1,0.1,0.1L33.9,19.3
						C33.9,19.4,33.9,19.4,33.9,19.3z"/>
					<path class="st0" d="M13.6,10.6h-1.9c-2.1,0-3.9,1.7-3.9,3.9v4.9c0,0,0,0.1,0.1,0.1h2c0,0,0.1,0,0.1-0.1v-4.9
						c0-1,0.8-1.8,1.8-1.8h1.9c0,0,0.1,0,0.1-0.1L13.6,10.6C13.7,10.6,13.6,10.6,13.6,10.6z"/>
					<path class="st0" d="M19.6,19.5c2.5,0,4.6-2,4.6-4.5c0-2.5-2.1-4.5-4.6-4.5c-2.5,0-4.6,2-4.6,4.5C15,17.5,17.1,19.5,19.6,19.5z
						 M17.1,15c0-1.4,1.1-2.5,2.5-2.5c1.4,0,2.5,1.1,2.5,2.5c0,1.4-1.1,2.5-2.5,2.5C18.2,17.5,17.1,16.4,17.1,15z"/>
					<path class="st0" d="M42.8,6.4c0.2,0.1,0.3,0.2,0.4,0.4c0,0.2,0.1,0.8,0.1,1.7v10.9H46v-17h-1.6c-0.8,1-1.9,1.6-3.4,1.9v1.9
						h0.3C42.1,6.2,42.6,6.3,42.8,6.4z"/>
					<path class="st0" d="M2,19.3v-3.1c0-0.4,0.1-0.6,0.3-0.8c0.2-0.2,0.4-0.2,0.8-0.2h0.7c0,0,0,0,0,0H5c0,0,0.1,0,0.1-0.1v-1.9
						c0,0,0-0.1-0.1-0.1H2v-2.8c0-0.4,0.1-0.6,0.3-0.8c0.2-0.2,0.4-0.2,0.8-0.2h4.7c0,0,0.1,0,0.1-0.1V7.6c0,0,0-0.1-0.1-0.1H1.2
						C0.1,7.5,0,8.3,0,8.6l0,0.8v10c0,0,0,0.1,0.1,0.1L2,19.3C2,19.4,2,19.4,2,19.3z"/>
				</g>
			</g>
			<path class="st0" d="M137.1,17.2c-0.3-0.2-0.6-0.4-0.9-0.4c-0.4,0-0.7,0.1-0.9,0.4c-0.3,0.2-0.4,0.5-0.4,0.9
				c0,0.4,0.1,0.7,0.4,0.9c0.3,0.2,0.6,0.4,0.9,0.4c0.4,0,0.7-0.1,0.9-0.4c0.2-0.2,0.4-0.6,0.4-0.9
				C137.5,17.7,137.4,17.4,137.1,17.2z"/>
			<path class="st0" d="M75.2,16L75.2,16c-0.3-0.2-0.4-0.6-0.4-1.2V0h-3.3v16.6l0,1.2c0,0.8,0.5,1.7,2,1.7h10.4v-3.1h-7.5
				C75.8,16.4,75.4,16.3,75.2,16z"/>
			<path class="st0" d="M96.4,6.6c-1.2-0.9-2.7-1.4-4.3-1.4c-4,0-7.3,3.2-7.3,7.1c0,3.9,3.3,7.1,7.3,7.1c1.6,0,3.1-0.5,4.3-1.4v1.3
				h3.1V5.3h-3.1V6.6z M92.1,16.3c-2.2,0-4.1-1.8-4.1-4c0-2.2,1.8-4,4.1-4c2.2,0,4.1,1.8,4.1,4C96.2,14.5,94.4,16.3,92.1,16.3z"/>
			<path class="st0" d="M110.5,5.2c-1.6,0-3.1,0.5-4.3,1.4V0h-3.1v19.4h3.1V18c1.2,0.9,2.7,1.4,4.3,1.4c4,0,7.3-3.2,7.3-7.1
				C117.7,8.4,114.5,5.2,110.5,5.2z M110.5,16.3c-2.2,0-4.1-1.8-4.1-4c0-2.2,1.8-4,4.1-4c2.2,0,4.1,1.8,4.1,4
				C114.5,14.5,112.7,16.3,110.5,16.3z"/>
			<path class="st0" d="M127.2,5.2c-4,0-7.3,3.2-7.3,7.1c0,3.9,3.3,7.1,7.3,7.1c4,0,7.3-3.2,7.3-7.1C134.5,8.4,131.2,5.2,127.2,5.2z
				 M127.2,16.3c-2.2,0-4.1-1.8-4.1-4c0-2.2,1.8-4,4.1-4c2.2,0,4.1,1.8,4.1,4C131.3,14.5,129.5,16.3,127.2,16.3z"/>
		</g>
	</g>
	<g>
		<path class="st0" d="M142.3,1.1h13.6v3.2h-10.2v4.2h8.1v3.2h-8.1v4.7h10.5v3.2h-13.9V1.1z"/>
		<path class="st0" d="M164.7,10l-6.2-8.8h4l4.3,6.5l4.3-6.5h4L169,10l6.7,9.6h-4l-4.8-7.3l-4.8,7.3h-4L164.7,10z"/>
		<path class="st0" d="M179,1.1h7.8c0.9,0,1.8,0.2,2.6,0.5c0.8,0.3,1.5,0.7,2,1.3c0.6,0.5,1,1.2,1.3,1.9c0.3,0.7,0.5,1.5,0.5,2.4
			c0,0.9-0.2,1.7-0.5,2.4c-0.3,0.7-0.8,1.4-1.3,1.9c-0.6,0.5-1.2,1-2,1.3c-0.8,0.3-1.7,0.5-2.6,0.5h-4.4v6.3H179V1.1z M186.7,10.2
			c0.4,0,0.8-0.1,1.2-0.2c0.4-0.2,0.7-0.4,1-0.6s0.5-0.6,0.7-1c0.2-0.4,0.2-0.8,0.2-1.2c0-0.4-0.1-0.8-0.2-1.2
			c-0.2-0.4-0.4-0.7-0.7-1c-0.3-0.3-0.6-0.5-1-0.6c-0.4-0.2-0.8-0.2-1.2-0.2h-4.3v6.1H186.7z"/>
		<path class="st0" d="M205.8,20c-1.4,0-2.7-0.3-4-0.8c-1.2-0.5-2.3-1.2-3.2-2.1c-0.9-0.9-1.6-1.9-2.1-3.1c-0.5-1.2-0.8-2.4-0.8-3.7
			c0-1.3,0.3-2.6,0.8-3.7c0.5-1.2,1.2-2.2,2.1-3.1c0.9-0.9,2-1.6,3.2-2.1c1.2-0.5,2.6-0.8,4-0.8s2.7,0.3,4,0.8
			c1.2,0.5,2.3,1.2,3.2,2.1c0.9,0.9,1.6,1.9,2.1,3.1c0.5,1.2,0.8,2.4,0.8,3.7c0,1.3-0.3,2.6-0.8,3.7c-0.5,1.2-1.2,2.2-2.1,3.1
			c-0.9,0.9-2,1.6-3.2,2.1C208.5,19.7,207.2,20,205.8,20z M205.8,16.8c0.9,0,1.8-0.2,2.6-0.5c0.8-0.3,1.5-0.8,2.1-1.4
			c0.6-0.6,1.1-1.3,1.4-2c0.3-0.8,0.5-1.6,0.5-2.6c0-0.9-0.2-1.8-0.5-2.6c-0.3-0.8-0.8-1.5-1.4-2.1c-0.6-0.6-1.3-1-2.1-1.4
			c-0.8-0.3-1.7-0.5-2.6-0.5c-1,0-1.8,0.2-2.6,0.5c-0.8,0.3-1.5,0.8-2.1,1.4c-0.6,0.6-1.1,1.3-1.4,2.1c-0.3,0.8-0.5,1.6-0.5,2.6
			c0,0.9,0.2,1.8,0.5,2.6c0.3,0.8,0.8,1.5,1.4,2c0.6,0.6,1.3,1,2.1,1.4C203.9,16.7,204.8,16.8,205.8,16.8z"/>
		<path class="st0" d="M219.5,16.8c0.3-0.8,0.6-1.5,1.1-2.2c0.4-0.6,0.9-1.2,1.5-1.7c0.6-0.5,1.2-0.9,1.8-1.3
			c0.6-0.4,1.2-0.8,1.8-1.1c0.6-0.4,1.1-0.7,1.5-1.1c0.4-0.4,0.8-0.8,1.1-1.2c0.3-0.4,0.4-0.9,0.4-1.5c0-0.8-0.3-1.5-0.8-2
			c-0.6-0.5-1.3-0.8-2.3-0.8c-0.7,0-1.2,0.1-1.7,0.4c-0.4,0.3-0.8,0.6-1.1,0.9c-0.3,0.4-0.6,0.8-0.7,1.2l-2.7-1.3
			c0.3-0.8,0.7-1.5,1.3-2.2c0.2-0.3,0.5-0.5,0.8-0.8c0.3-0.3,0.7-0.5,1.1-0.7c0.4-0.2,0.9-0.4,1.4-0.5c0.5-0.1,1.1-0.2,1.7-0.2
			c1,0,1.9,0.1,2.7,0.4c0.8,0.3,1.5,0.7,2,1.2c0.6,0.5,1,1.1,1.3,1.8c0.3,0.7,0.5,1.5,0.5,2.3c0,0.9-0.2,1.7-0.5,2.3
			c-0.3,0.7-0.8,1.3-1.3,1.8s-1.1,1-1.8,1.5c-0.7,0.4-1.3,0.9-2,1.3c-0.7,0.4-1.3,0.9-1.9,1.4c-0.6,0.5-1,1-1.4,1.6h8.7v3.2h-12.9
			C219.1,18.5,219.2,17.6,219.5,16.8z"/>
		<path class="st0" d="M243.3,20c-1,0-2-0.2-3-0.7c-1-0.4-1.8-1.1-2.5-1.9c-0.7-0.8-1.3-1.8-1.7-3c-0.4-1.2-0.7-2.5-0.7-4
			c0-1.5,0.2-2.8,0.7-4c0.4-1.2,1-2.2,1.7-3c0.7-0.8,1.6-1.5,2.5-1.9c1-0.4,2-0.7,3-0.7c1,0,2,0.2,3,0.7c1,0.4,1.8,1.1,2.5,1.9
			c0.7,0.8,1.3,1.8,1.7,3c0.4,1.2,0.7,2.5,0.7,4c0,1.5-0.2,2.8-0.7,4c-0.4,1.2-1,2.2-1.7,3c-0.7,0.8-1.6,1.5-2.5,1.9
			C245.3,19.8,244.3,20,243.3,20z M243.3,16.8c0.6,0,1.1-0.1,1.7-0.4c0.5-0.3,1-0.7,1.4-1.2s0.7-1.2,1-2c0.3-0.8,0.4-1.8,0.4-2.8
			c0-1.1-0.1-2-0.4-2.8s-0.6-1.5-1-2C246,5,245.5,4.6,245,4.3c-0.5-0.3-1.1-0.4-1.7-0.4c-0.6,0-1.1,0.1-1.7,0.4
			c-0.5,0.3-1,0.7-1.4,1.2c-0.4,0.5-0.7,1.2-1,2s-0.4,1.8-0.4,2.8c0,1.1,0.1,2,0.4,2.8c0.3,0.8,0.6,1.5,1,2s0.9,0.9,1.4,1.2
			C242.2,16.7,242.7,16.8,243.3,16.8z"/>
		<path class="st0" d="M254.3,16.8c0.3-0.8,0.6-1.5,1.1-2.2c0.4-0.6,0.9-1.2,1.5-1.7c0.6-0.5,1.2-0.9,1.8-1.3
			c0.6-0.4,1.2-0.8,1.8-1.1s1.1-0.7,1.5-1.1c0.4-0.4,0.8-0.8,1.1-1.2c0.3-0.4,0.4-0.9,0.4-1.5c0-0.8-0.3-1.5-0.8-2
			c-0.6-0.5-1.3-0.8-2.3-0.8c-0.7,0-1.2,0.1-1.7,0.4c-0.4,0.3-0.8,0.6-1.1,0.9c-0.3,0.4-0.6,0.8-0.7,1.2l-2.7-1.3
			c0.3-0.8,0.7-1.5,1.3-2.2c0.2-0.3,0.5-0.5,0.8-0.8c0.3-0.3,0.7-0.5,1.1-0.7c0.4-0.2,0.9-0.4,1.4-0.5c0.5-0.1,1.1-0.2,1.7-0.2
			c1,0,1.9,0.1,2.7,0.4c0.8,0.3,1.5,0.7,2,1.2c0.6,0.5,1,1.1,1.3,1.8c0.3,0.7,0.5,1.5,0.5,2.3c0,0.9-0.2,1.7-0.5,2.3
			c-0.3,0.7-0.8,1.3-1.3,1.8c-0.5,0.5-1.1,1-1.8,1.5c-0.7,0.4-1.3,0.9-2,1.3c-0.7,0.4-1.3,0.9-1.9,1.4c-0.6,0.5-1,1-1.4,1.6h8.7v3.2
			h-12.9C253.9,18.5,254.1,17.6,254.3,16.8z"/>
		<path class="st0" d="M274.6,5.8h-3.4V3.6c1.2-0.1,2.1-0.5,2.8-1c0.6-0.5,1.1-1,1.3-1.5h2.7v18.5h-3.4V5.8z"/>
	</g>
</g>
</svg>
