<?xml version="1.0" encoding="utf-8"?>
<!-- Generator: Adobe Illustrator 24.0.3, SVG Export Plug-In . SVG Version: 6.00 Build 0)  -->
<svg version="1.1" id="レイヤー_1" xmlns="http://www.w3.org/2000/svg" xmlns:xlink="http://www.w3.org/1999/xlink" x="0px"
	 y="0px" viewBox="0 0 182 40" style="enable-background:new 0 0 182 40;" xml:space="preserve">
<style type="text/css">
	.st0{fill:#FFFFFF;}
	.st1{fill:#3A81C4;}
</style>
<g>
	<g>
		<path class="st0" d="M5.7,25.2c0.3-1.6,0.6-3.3,0.8-5l1.7,0.1c-0.2,1.6-0.4,3.2-0.7,4.8C8.3,25,9,25,9.5,25c1,0,1.7,0,2.2,0.1
			c0.5,0.1,0.9,0.3,1.2,0.7c0.3,0.4,0.5,0.9,0.6,1.4s0.1,1.5,0.1,2.6c0,2.9-0.4,5.2-1.3,6.9c-0.9,1.7-1.9,2.5-3.1,2.5
			c-1,0-2.2-0.6-3.7-1.8l0.8-1.4c1.2,1,2.1,1.5,2.8,1.5c0.7,0,1.3-0.7,1.9-2.2c0.6-1.4,0.9-3.4,0.9-5.9c0-0.8,0-1.3-0.1-1.7
			c0-0.4-0.2-0.7-0.4-0.9c-0.2-0.2-0.4-0.4-0.7-0.4c-0.3,0-0.7-0.1-1.3-0.1c-0.5,0-1.3,0-2.4,0.1c-1,4.3-2.5,8.6-4.7,12.8L1,38.8
			c2-3.9,3.5-7.9,4.4-12.1c-1.6,0.2-3,0.3-4.2,0.4l-0.1-1.5C2.4,25.5,3.9,25.3,5.7,25.2z M14.4,24l1.6-0.7c1.7,3.2,3.3,6.9,4.6,11.1
			L19,35C17.7,31,16.2,27.3,14.4,24z"/>
		<path class="st0" d="M29.3,20.1l1.7,0.1c-0.2,1.6-0.4,3.2-0.7,4.8c0.8,0,1.5-0.1,2.1-0.1c1,0,1.7,0,2.2,0.1
			c0.5,0.1,0.9,0.3,1.2,0.7c0.3,0.4,0.5,0.9,0.6,1.4c0.1,0.6,0.1,1.5,0.1,2.6c0,2.9-0.4,5.2-1.3,6.9c-0.9,1.7-1.9,2.5-3.1,2.5
			c-1,0-2.2-0.6-3.7-1.8l0.8-1.4c1.2,1,2.1,1.5,2.8,1.5c0.7,0,1.3-0.7,1.9-2.2c0.6-1.4,0.9-3.4,0.9-5.9c0-0.8,0-1.3-0.1-1.7
			c0-0.4-0.2-0.7-0.4-0.9c-0.2-0.2-0.4-0.4-0.7-0.4c-0.3,0-0.7-0.1-1.3-0.1c-0.5,0-1.3,0-2.4,0.1c-1,4.3-2.5,8.6-4.7,12.8l-1.5-0.6
			c2-3.9,3.5-7.9,4.4-12.1c-1.6,0.2-3,0.3-4.2,0.4l-0.1-1.5c1.3-0.2,2.8-0.3,4.7-0.5C28.9,23.5,29.1,21.8,29.3,20.1z M36.2,21.6
			l1.4-0.7c0.7,1.2,1.5,2.5,2.1,3.8l-1.4,0.7C37.8,24.1,37,22.9,36.2,21.6z M38.4,27.3l1.5-0.7c1.5,2.9,2.7,5.7,3.7,8.4l-1.6,0.6
			C41.1,32.9,39.9,30.2,38.4,27.3z M39.4,20.7l1.4-0.8c0.9,1.5,1.6,2.8,2.2,3.9l-1.4,0.7C40.9,23.2,40.2,21.9,39.4,20.7z"/>
		<path class="st0" d="M51.3,20.8h1.7c0,0.8,0,1.8,0,3.3c0,1.4,0,2.5,0,3.2c1.4-1.2,2.6-2.1,3.6-2.6c1-0.5,2.1-0.7,3.1-0.7
			c1.9,0,3.3,0.6,4.3,1.8c0.9,1.2,1.4,3,1.4,5.5c0,2.2-0.6,4-1.7,5.2c-1.1,1.3-2.7,1.9-4.6,1.9c-1.2,0-2.4-0.3-3.5-0.8L56,36
			c1,0.5,2,0.7,3,0.7c1.4,0,2.5-0.5,3.4-1.4c0.8-1,1.2-2.3,1.2-4.1c0-2-0.3-3.4-0.9-4.3c-0.6-0.9-1.6-1.3-3-1.3
			c-0.9,0-1.9,0.3-2.9,0.8c-1,0.6-2.3,1.6-3.7,3c0,4,0.1,7.4,0.2,10.3l-1.7,0c0-0.6-0.1-3.5-0.1-8.6c-1.3,1.4-2.7,3-4.3,4.9l-1.3-1
			c2.2-2.7,4-4.7,5.5-6.2c0-0.3,0-0.7,0-1.2c0-0.6,0-1,0-1.3c-1.6,0.2-3.2,0.4-4.7,0.4l0-1.6c1.6,0,3.2-0.1,4.8-0.4c0-0.4,0-1,0-1.9
			C51.3,21.9,51.3,21.2,51.3,20.8z"/>
		<path class="st1" d="M86.5,22.9H70.7v3.7H69v-5.2h8.7v-2h1.8v2h8.7v4.9h-1.7V22.9z M75.4,38.4c1.3,0.1,2.2,0.1,2.9,0.1
			c0.5,0,0.8-0.1,0.9-0.4c0.1-0.3,0.2-1,0.2-2.3c0-0.6,0-1.1-0.1-1.7c-2.3,2.1-5.6,3.9-9.7,5.3L69,37.9c4.3-1.5,7.6-3.2,10-5.4
			c-0.2-0.7-0.5-1.3-0.8-1.9c-2.1,1.7-4.9,3.1-8.4,4.3l-0.6-1.4c3.6-1.1,6.3-2.5,8.3-4c-0.4-0.5-0.9-1.1-1.5-1.6
			c-1.7,1-3.7,1.9-6.1,2.7l-0.6-1.3c3.1-1,5.6-2.1,7.5-3.3h-5.4v-1.5h14.2V26h-4.6c0.3,1.6,0.9,3.3,1.7,4.9c1.3-1,2.5-2.1,3.6-3.4
			l1.2,1c-1.2,1.5-2.6,2.8-4,3.9c1.4,2.3,3,4.2,5,5.7l-1.1,1.4c-1.9-1.5-3.6-3.4-5.1-5.8c-1.5-2.4-2.5-4.9-3-7.5h-0.7
			c-0.3,0.2-0.7,0.6-1.4,1.1c1.2,1.1,2.1,2.4,2.8,3.9c0.7,1.5,1,3.2,1,4.8c0,1.7-0.2,2.8-0.5,3.3c-0.4,0.6-1,0.9-1.8,0.9
			c-0.6,0-1.8,0-3.4-0.1L75.4,38.4z"/>
	</g>
	<g>
		<path class="st0" d="M95.5,30.9c0-4.4,0.1-5,0.3-5.6c0.5-1.5,1.6-2.3,3.4-2.3c2.1,0,3.3,1.2,3.6,3.4c0,0.1,0,0.3-0.2,0.3l-1.3,0.3
			c-0.2,0-0.2,0-0.3-0.2c-0.2-1.3-0.7-2-1.8-2c-0.8,0-1.4,0.4-1.6,1.1c-0.2,0.5-0.2,0.8-0.2,5.1s0,4.7,0.2,5.1
			c0.2,0.7,0.8,1.1,1.6,1.1c0.8,0,1.4-0.4,1.6-1.1c0.1-0.4,0.2-0.8,0.2-4c0-0.1,0-0.1-0.1-0.1h-1.5c-0.1,0-0.2-0.1-0.2-0.2v-1.2
			c0-0.1,0.1-0.2,0.2-0.2h3.2c0.1,0,0.2,0.1,0.2,0.2v0.7c0,4.1-0.1,4.7-0.3,5.4c-0.5,1.5-1.6,2.3-3.4,2.3c-1.7,0-2.9-0.8-3.4-2.3
			C95.6,35.8,95.5,35.3,95.5,30.9z"/>
		<path class="st0" d="M112,23.4c0-0.1,0.1-0.2,0.2-0.2h1.4c0.1,0,0.2,0.1,0.2,0.2l3.2,15c0,0.1-0.1,0.2-0.2,0.2h-1.4
			c-0.2,0-0.2-0.1-0.2-0.2l-0.7-3.4h-3.4l-0.7,3.4c0,0.1-0.1,0.2-0.2,0.2h-1.4c-0.1,0-0.2-0.1-0.2-0.2L112,23.4z M114.2,33.4
			l-1.3-6.7h-0.1l-1.4,6.7H114.2z"/>
		<path class="st0" d="M123.3,23.4c0-0.1,0.1-0.2,0.2-0.2h1.4c0.1,0,0.2,0.1,0.2,0.2v13.4c0,0.1,0,0.1,0.1,0.1h4
			c0.1,0,0.2,0.1,0.2,0.2v1.2c0,0.1-0.1,0.2-0.2,0.2h-5.7c-0.1,0-0.2-0.1-0.2-0.2V23.4z"/>
		<path class="st0" d="M135.9,23.4c0-0.1,0.1-0.2,0.2-0.2h1.4c0.1,0,0.2,0.1,0.2,0.2v13.4c0,0.1,0,0.1,0.1,0.1h4
			c0.1,0,0.2,0.1,0.2,0.2v1.2c0,0.1-0.1,0.2-0.2,0.2h-5.7c-0.1,0-0.2-0.1-0.2-0.2V23.4z"/>
		<path class="st0" d="M148.5,23.4c0-0.1,0.1-0.2,0.2-0.2h5.8c0.1,0,0.2,0.1,0.2,0.2v1.2c0,0.1-0.1,0.2-0.2,0.2h-4.1
			c-0.1,0-0.1,0-0.1,0.1v4.8c0,0.1,0,0.1,0.1,0.1h3.5c0.1,0,0.2,0.1,0.2,0.2v1.2c0,0.1-0.1,0.2-0.2,0.2h-3.5c-0.1,0-0.1,0-0.1,0.1v5
			c0,0.1,0,0.1,0.1,0.1h4.1c0.1,0,0.2,0.1,0.2,0.2v1.2c0,0.1-0.1,0.2-0.2,0.2h-5.8c-0.1,0-0.2-0.1-0.2-0.2V23.4z"/>
		<path class="st0" d="M166.9,38.6c-0.1,0-0.2,0-0.2-0.2l-1.9-6.5c-0.2,0-0.4,0-0.6,0h-0.9c-0.1,0-0.1,0-0.1,0.1v6.2
			c0,0.1-0.1,0.2-0.2,0.2h-1.4c-0.1,0-0.2-0.1-0.2-0.2v-15c0-0.1,0.1-0.2,0.2-0.2h2.7c2.7,0,4.1,1.2,4.1,4.5c0,2.1-0.7,3.3-1.9,3.9
			l2.1,6.8c0,0.1,0,0.2-0.1,0.2H166.9z M166.5,27.6c0-2.1-0.7-2.7-2.3-2.7h-1c-0.1,0-0.1,0-0.1,0.1v5.2c0,0.1,0,0.1,0.1,0.1h1
			C165.8,30.4,166.5,29.7,166.5,27.6z"/>
		<path class="st0" d="M177.4,38.6c-0.1,0-0.2-0.1-0.2-0.2v-6.2l-3-8.8c0-0.1,0-0.2,0.2-0.2h1.4c0.2,0,0.2,0.1,0.3,0.2l2,6.5h0.1
			l2-6.5c0-0.2,0.1-0.2,0.2-0.2h1.4c0.2,0,0.2,0.1,0.2,0.2l-3,8.8v6.2c0,0.1-0.1,0.2-0.2,0.2H177.4z"/>
	</g>
	<polygon class="st0" points="181.9,10.5 91,0 0,10.5 0,14 91,3.4 181.9,14 	"/>
</g>
</svg>
