<?xml version="1.0" encoding="utf-8"?>
<!-- Generator: Adobe Illustrator 24.0.3, SVG Export Plug-In . SVG Version: 6.00 Build 0)  -->
<svg version="1.1" id="レイヤー_1" xmlns="http://www.w3.org/2000/svg" xmlns:xlink="http://www.w3.org/1999/xlink" x="0px"
	 y="0px" viewBox="0 0 150 58" style="enable-background:new 0 0 150 58;" xml:space="preserve">
<style type="text/css">
	.st0{fill:#3A81C4;}
	.st1{fill:#FFFFFF;}
</style>
<g>
	<g>
		<path class="st0" d="M65.7,5.9c13.1,0,25,4.9,34,13C89.1,7.3,73.8,0,56.8,0C29.2,0,6.1,19.2,0,45h16C21.5,22.6,41.6,5.9,65.7,5.9z
			"/>
		<g>
			<path class="st1" d="M122.6,44.8c0.7,0.3,1.6,0.4,2.5,0.4c0.9,0,1.7-0.1,2.5-0.4c0.7-0.2,1.3-0.6,1.8-1c0.5-0.4,0.9-0.9,1.1-1.5
				c0.3-0.5,0.4-1.1,0.4-1.7c0-0.8-0.2-1.5-0.5-2c-0.4-0.5-0.8-1-1.4-1.3c-0.6-0.3-1.2-0.6-1.8-0.8c-0.7-0.2-1.3-0.4-1.9-0.6
				c-0.6-0.2-1.1-0.4-1.4-0.6c-0.4-0.2-0.7-0.5-0.7-0.9c0-0.3,0.2-0.7,0.5-0.9c0.3-0.3,0.9-0.4,1.6-0.4c0.5,0,1,0.1,1.4,0.2
				c0.4,0.1,0.8,0.3,1,0.4c0.3,0.2,0.5,0.3,0.8,0.5l2.1-2.1c-0.4-0.4-0.8-0.7-1.2-1c-0.5-0.3-1-0.5-1.7-0.8
				c-0.7-0.2-1.4-0.4-2.3-0.4c-0.8,0-1.6,0.1-2.3,0.4c-0.7,0.2-1.3,0.6-1.7,1c-0.5,0.4-0.8,0.9-1.1,1.4c-0.2,0.5-0.4,1.1-0.4,1.7
				c0,0.8,0.2,1.5,0.5,2c0.4,0.5,0.8,1,1.4,1.3c0.6,0.3,1.2,0.6,1.8,0.8c0.7,0.2,1.3,0.4,1.9,0.6c0.6,0.2,1.1,0.4,1.4,0.6
				c0.4,0.2,0.7,0.5,0.7,0.9c0,0.4-0.2,0.8-0.6,1.2c-0.4,0.3-1,0.5-1.8,0.5c-0.6,0-1.1-0.1-1.6-0.3c-0.5-0.2-0.9-0.4-1.2-0.6
				c-0.3-0.2-0.7-0.5-1-0.8l-2.1,2.1c0.4,0.5,0.9,0.9,1.5,1.2C121.3,44.3,121.9,44.6,122.6,44.8z"/>
			<path class="st1" d="M136.4,41.6c0,2.6,0.7,3.4,3,3.4h3.7l-0.9-3.6h-1.9c-0.7,0-0.7-0.9-0.7-1.8v-5.7h3.3v-3h-3.3v-3.5h-2.9v1.8
				c0,0.6-0.1,1-0.4,1.3c-0.3,0.3-0.7,0.4-1.3,0.4h-1.4v3h2.7V41.6z"/>
			<path class="st1" d="M148,45c0.6,0,1-0.2,1.4-0.6c0.4-0.4,0.6-0.9,0.6-1.4c0-0.6-0.2-1-0.6-1.4c-0.4-0.4-0.8-0.6-1.4-0.6
				c-0.6,0-1,0.2-1.4,0.6c-0.4,0.4-0.6,0.8-0.6,1.4c0,0.6,0.2,1,0.6,1.4C147,44.8,147.5,45,148,45z"/>
			<path class="st1" d="M109.1,23c0.3,0.2,0.5,0.4,0.6,0.7c0.1,0.3,0.1,1.3,0.1,2.9V45h4.7V16.2H112c-1.3,1.7-3.2,2.7-5.6,3.3v3.3
				h0.5C108,22.7,108.8,22.8,109.1,23z"/>
			<g>
				<path class="st1" d="M94.5,44.9v-8.3c0-1.7,1.3-3.1,2.9-3.1c1.6,0,2.9,1.4,2.9,3.1v8.3c0,0.1,0,0.1,0.1,0.1h3.3
					c0.1,0,0.1,0,0.1-0.1v-8.3c0-3.6-2.9-6.5-6.4-6.5c-1.8,0-3.4,0.7-4.6,2.1l0,0l0,0c-1.2-1.3-2.9-2.1-4.6-2.1
					c-3.5,0-6.4,2.9-6.4,6.5v8.3c0,0.1,0,0.1,0.1,0.1h3.3c0.1,0,0.1,0,0.1-0.1v-8.3c0-1.7,1.3-3.1,2.9-3.1c1.6,0,2.9,1.4,2.9,3.1
					v8.3c0,0.1,0,0.1,0.1,0.1h3.3C94.5,45,94.5,45,94.5,44.9z"/>
				<path class="st1" d="M60.8,30h-3.2c-3.5,0-6.4,2.9-6.4,6.5v8.3c0,0.1,0,0.1,0.1,0.1h3.3c0.1,0,0.1,0,0.1-0.1v-8.3
					c0-1.7,1.3-3.1,2.9-3.1h3.2c0.1,0,0.1,0,0.1-0.1v-3.3C60.9,30.1,60.9,30,60.8,30z"/>
				<path class="st1" d="M70.8,45.2c4.2,0,7.6-3.4,7.6-7.6c0-4.2-3.4-7.6-7.6-7.6c-4.2,0-7.6,3.4-7.6,7.6
					C63.2,41.8,66.6,45.2,70.8,45.2z M66.6,37.6c0-2.3,1.9-4.2,4.2-4.2c2.3,0,4.2,1.9,4.2,4.2c0,2.3-1.9,4.2-4.2,4.2
					C68.5,41.8,66.6,39.9,66.6,37.6z"/>
				<path class="st1" d="M41.7,44.9v-5.2c0-0.6,0.1-1.1,0.4-1.3c0.3-0.3,0.7-0.4,1.3-0.4h1.2c0,0,0,0,0,0h1.9c0.1,0,0.1,0,0.1-0.1
					v-3.2c0-0.1,0-0.1-0.1-0.1h-4.9v-4.7c0-0.6,0.1-1.1,0.4-1.3c0.3-0.3,0.7-0.4,1.3-0.4h7.8c0.1,0,0.1,0,0.1-0.1v-3
					c0-0.1,0-0.1-0.1-0.1H40.3c-1.9,0-2,1.3-2,1.8l0,1.3v16.9c0,0.1-0.1,0,0,0l3.3,0.1C41.6,45,41.7,45,41.7,44.9z"/>
			</g>
		</g>
	</g>
	<g>
		<path class="st1" d="M66.6,50.8c0.9,0,1.8,0.3,2.4,0.9c0.1,0.1,0.1,0.2,0,0.3l-0.6,0.6c-0.1,0.1-0.2,0.1-0.3,0
			c-0.4-0.4-1-0.6-1.5-0.6c-1.2,0-2.2,1.1-2.2,2.3c0,1.2,1,2.3,2.2,2.3c0.6,0,1-0.2,1.2-0.2v-0.8H67c-0.1,0-0.2-0.1-0.2-0.2v-0.8
			c0-0.1,0.1-0.2,0.2-0.2h1.9c0.1,0,0.2,0.1,0.2,0.2v2.6c0,0.1,0,0.1-0.1,0.2c0,0-1,0.6-2.5,0.6c-2,0-3.6-1.6-3.6-3.6
			S64.6,50.8,66.6,50.8z"/>
		<path class="st1" d="M71.9,51.1c0-0.1,0.1-0.2,0.2-0.2h2.8c1.2,0,2.2,1,2.2,2.1c0,0.9-0.6,1.7-1.5,2l1.4,2.5
			c0.1,0.1,0,0.3-0.2,0.3h-1c-0.1,0-0.1,0-0.2-0.1l-1.3-2.6h-1.1v2.5c0,0.1-0.1,0.2-0.2,0.2h-0.9c-0.1,0-0.2-0.1-0.2-0.2V51.1z
			 M74.8,54.1c0.5,0,1-0.5,1-1c0-0.5-0.5-1-1-1h-1.6v2H74.8z"/>
		<path class="st1" d="M83.1,50.8c2,0,3.6,1.6,3.6,3.6S85.1,58,83.1,58s-3.6-1.6-3.6-3.6S81.1,50.8,83.1,50.8z M83.1,56.7
			c1.3,0,2.3-1,2.3-2.3c0-1.3-1-2.3-2.3-2.3s-2.3,1-2.3,2.3C80.8,55.7,81.8,56.7,83.1,56.7z"/>
		<path class="st1" d="M89.4,51.1c0-0.1,0.1-0.2,0.2-0.2h0.9c0.1,0,0.2,0.1,0.2,0.2v4.1c0,0.8,0.6,1.5,1.4,1.5
			c0.9,0,1.5-0.7,1.5-1.5v-4.1c0-0.1,0.1-0.2,0.2-0.2h0.9c0.1,0,0.2,0.1,0.2,0.2v4.2c0,1.5-1.2,2.7-2.8,2.7c-1.6,0-2.8-1.2-2.8-2.7
			V51.1z"/>
		<path class="st1" d="M98.7,51.1c0-0.1,0.1-0.2,0.2-0.2h2.3c1.2,0,2.2,1,2.2,2.2c0,1.2-1,2.2-2.2,2.2H100v2.3
			c0,0.1-0.1,0.2-0.2,0.2h-0.9c-0.1,0-0.2-0.1-0.2-0.2V51.1z M101.2,54.1c0.6,0,1-0.5,1-1c0-0.5-0.5-1-1-1H100v2H101.2z"/>
		<path class="st1" d="M106.4,54.9v-0.7c0-0.1,0.1-0.2,0.2-0.2h2.2c0.1,0,0.2,0.1,0.2,0.2v0.7c0,0.1-0.1,0.2-0.2,0.2h-2.2
			C106.4,55.1,106.4,55,106.4,54.9z"/>
		<path class="st1" d="M113.5,54.4L113.5,54.4c-0.4-0.2-1-0.8-1-1.6c0-1.1,1-1.8,2.2-1.8c1.2,0,2.2,0.7,2.2,1.8c0,0.8-0.6,1.3-1,1.5
			v0c0.4,0.2,1.2,0.8,1.2,1.7c0,1.1-0.9,1.9-2.4,1.9c-1.4,0-2.3-0.8-2.3-1.9C112.3,55.2,113.2,54.6,113.5,54.4z M114.6,57
			c0.5,0,1-0.4,1-0.9c0-0.5-0.4-0.9-1-1.1c-0.7,0.1-1,0.6-1,1.1C113.6,56.6,114.1,57,114.6,57z M115.5,52.9c0-0.5-0.4-0.8-0.9-0.8
			c-0.5,0-0.9,0.4-0.9,0.8c0,0.4,0.3,0.8,0.9,0.9C115.2,53.7,115.5,53.3,115.5,52.9z"/>
	</g>
</g>
</svg>
