<?xml version="1.0" encoding="utf-8"?>
<!-- Generator: Adobe Illustrator 24.0.3, SVG Export Plug-In . SVG Version: 6.00 Build 0)  -->
<svg version="1.1" id="レイヤー_1" xmlns="http://www.w3.org/2000/svg" xmlns:xlink="http://www.w3.org/1999/xlink" x="0px"
	 y="0px" viewBox="0 0 277 51" style="enable-background:new 0 0 277 51;" xml:space="preserve">
<style type="text/css">
	.st0{fill:#FFFFFF;}
</style>
<g>
	<path class="st0" d="M4.1,4.5c-0.7,0-1.2-0.6-1.2-1.2C2.9,1.6,4.8,0,5,0c0.1,0,0.2,0.1,0.2,0.2c0,0.1-0.5,0.5-0.6,0.7
		C4.4,1.1,4.2,1.4,4.2,1.7c0,0.1,0.1,0.3,0.2,0.4C5,2.5,5.3,2.6,5.3,3.3C5.3,4,4.8,4.5,4.1,4.5z M7.3,4.5c-0.7,0-1.2-0.6-1.2-1.2
		C6.1,1.6,8,0,8.2,0c0.1,0,0.2,0.1,0.2,0.2c0,0.1-0.5,0.5-0.6,0.7C7.6,1.1,7.4,1.4,7.4,1.7c0,0.1,0,0.3,0.2,0.4
		c0.6,0.4,0.9,0.5,0.9,1.2C8.5,4,7.9,4.5,7.3,4.5z"/>
	<path class="st0" d="M15.2,3.4c0,0.2-0.4,1-0.4,1.2c-0.3,1.1-0.9,5.7-0.9,7.5c0,2.1,0.4,4,3.2,4c1,0,2.5-0.2,4.4-1.1
		c0.3-0.1,1.9-1,2-1s0.1,0.1,0.1,0.1c0,0.2-3.1,3.6-7.1,3.6c-2.7,0-4-1.6-4-5.8c0-1.3,0-1.7,0.5-5.8c0.1-0.7,0.3-2.4,0.3-3
		c0-0.4-0.1-0.7-0.2-1c0-0.1-0.2-0.5-0.2-0.6c0-0.1,0.2-0.2,0.3-0.2C14.2,1.2,15.2,2.9,15.2,3.4z"/>
	<path class="st0" d="M30.6,14.8c-1.1,0.8-2.1,1.5-3.2,1.5c-0.9,0-1-1.1-1-1.4c0-2.3,2-4.7,4.6-6.4c0.7-0.5,0.9-0.6,0.9-2.1
		c0-0.3-0.1-0.4-0.5-0.4c0,0-0.8,0-0.9,0c-1.9,0-2.7-1.3-2.7-1.5c0-0.1,0.1-0.2,0.3-0.2c0.1,0,0.8,0.2,0.9,0.2
		c0.5,0.1,1,0.1,1.4,0.1c0.4,0,1.6,0,1.7-0.3c0.1-0.3,0.2-1.5,0.2-1.6c0-0.2-0.2-1.3-0.2-1.3c0-0.1,0.1-0.1,0.2-0.1
		c0,0,1.9,0.4,1.9,0.8c0,0-0.3,0.7-0.3,0.7c-0.2,0.4-0.3,0.8-0.3,1c0,0.2,0,0.2,0.3,0.2c0.4,0,2.4-0.7,2.8-0.7
		c0.5,0,0.9,0.3,0.9,0.7c0,0.7-0.8,0.9-2.5,1.3c-1.2,0.3-1.6,0.4-1.7,0.5c-0.1,0.1-0.2,0.7-0.2,1c0,0.5,0.1,0.5,0.4,0.5
		c0.2,0,0.5-0.1,0.6-0.1c1-0.3,1.9-0.4,2.6-0.4c3.1,0,4.8,2.1,4.8,4.8c0,4.5-4.2,5.7-6.1,6.2c-0.1,0-1,0.3-1.5,0.3
		c-0.1,0-0.2,0-0.2-0.1c0-0.1,0.2-0.1,0.4-0.2c4.2-1.4,5.8-3.6,5.8-6c0-2.6-1.8-4-3.5-4c-1,0-1.1,0.1-1.4,1.4
		c-0.4,1.1-0.7,1.7-1.5,2.9c-0.2,0.3-0.2,0.4-0.2,0.8c0,0.2,0.1,0.9,0.1,1.1c0,0.6-0.2,1-0.7,1c-0.4,0-0.5-0.3-0.7-0.5
		c-0.1-0.3-0.2-0.3-0.2-0.3C31.6,14,30.9,14.5,30.6,14.8z M31.5,12.3c0.1-0.2,0.1-2.4,0.1-2.6c0-0.1,0-0.5-0.1-0.5
		c-0.8,0-3.7,3.5-3.7,5.1c0,0.3,0.1,0.5,0.4,0.5C28.9,14.6,31.2,13,31.5,12.3z M33.9,8.1c-1.1,0-1.1,0.7-1.1,1.4c0,0.2,0,1,0.3,1
		c0.3,0,1.2-1.7,1.2-2.2c0,0,0-0.2-0.1-0.2C34.1,8.1,34,8.1,33.9,8.1z"/>
	<path class="st0" d="M50.2,5.3c0.5,0.3,0.5,0.7,0.5,0.8c0,0.4-0.1,0.6-0.3,1c-0.1,0.1-0.1,0.3-0.1,0.4c0,0.1,0,0.1,0.1,0.1
		c0.1,0,0.5-0.3,0.6-0.3c2.1-1,3.2-1.2,4.2-1.2c3.3,0,4.8,2.2,4.8,4.4c0,5-6.7,6.7-7.2,6.7c0,0-0.1,0-0.1,0c0-0.1,1.3-0.8,1.6-1
		c1.1-0.7,4.1-3,4.1-6.1c0-2.4-1.7-3.2-3.2-3.2c-2.3,0-4.7,1.3-5.5,2.2c-0.3,0.3-0.4,0.7-0.4,2.1c0,0.5,0,3.1,0.1,4.2
		c0,0.2,0.1,0.9,0.1,1c0,0.7-0.6,1.2-0.9,1.2c-0.6,0-0.7-0.8-0.7-2c0-0.4-0.2-2.4-0.7-2.4c-0.1,0-0.4,0.5-0.5,0.9
		c-0.3,0.6-0.8,1.5-1.5,1.5c-0.3,0-0.5-0.2-0.5-0.6c0-0.4,0.1-0.5,0.6-1.4c0.2-0.4,1.1-1.8,1.1-2c0-0.4-0.4-1.2-0.8-1.6
		c-0.7-0.8-0.7-0.9-0.7-1.3c0-0.7,0.6-0.8,1.4-0.9c0.4-0.1,0.5-0.1,1.9-1.4c0.1-0.1,0.5-0.4,0.5-0.5c0.1-0.2,0.2-1.1,0.2-1.8
		c0-1.9-0.5-2.6-0.8-3c-0.4-0.4-0.4-0.5-0.4-0.5c0-0.2,0.5-0.3,0.7-0.3c0.6,0,2,0.9,2,1.6c0,0.3-0.3,1.6-0.3,1.9
		c0,0.3-0.1,1-0.1,1.2C49.9,5.1,49.9,5.1,50.2,5.3z M47.6,7.8c-0.2,0.3-0.4,0.7-0.9,0.7c-0.7,0-0.9,0.1-0.9,0.3c0,0.3,0.8,1.6,1,1.6
		c0.1,0,0.2-0.1,0.4-0.4c1.3-1.9,1.3-2,1.3-2.7c0-0.2,0-0.3-0.1-0.3C48.3,7.1,48,7.2,47.6,7.8z M47.5,12.2c0,0.3,0.4,0.8,0.6,0.8
		c0.3,0,0.3-1.1,0.3-2.1c0-0.1,0-0.1-0.1-0.1C48.1,10.8,47.5,12,47.5,12.2z"/>
	<path class="st0" d="M75.7,4.6c-0.1,1.4-0.2,1.6-0.2,1.7c0,0.1,0.2,0.1,0.2,0.1c0.1,0,0.8-0.1,1-0.1c0.5,0,0.7-0.1,0.7-0.3
		c0-0.1,0-0.2-0.4-0.5c0,0-0.1-0.1-0.1-0.1c0-0.1,0.1-0.1,0.2-0.1c0.2,0,1.2,0.3,1.5,0.4c1.3,0.4,1.6,0.7,1.6,1.1
		c0,0.5-0.6,0.7-1,0.7c-0.4,0-2.3-0.2-2.6-0.2c-1.2,0-1.2,0-1.4,1.1c-0.4,3.1-1.5,4.2-2.3,4.2c-0.7,0-0.8-0.2-1-0.8
		c-0.1-0.3-0.3-0.7-0.4-0.9c0-0.1-0.3-0.4-0.3-0.4c0,0,0.1,0,0.1,0c0.2,0,1.2,0.4,1.4,0.4c0.4,0,0.6-0.2,0.7-0.5
		C73.7,9.4,74,7.9,74,7.7c0-0.2,0-0.3-0.3-0.3c-0.4,0-4.2,0.8-4.5,1.3C69,9,69,9.2,69,9.6c0,0.7-0.1,2.6-0.1,2.7c0,2,0.4,3,3.3,3
		c0.4,0,1.1,0,1.9-0.2c0.1,0,0.7-0.1,1-0.1c0.6,0,1.1,0.4,1.1,0.9c0,1-1.9,1-2.4,1c-6,0-6-1.7-6-5.7c0-1.8,0-2-0.4-2
		c-0.4,0-1.8,0.6-2.1,0.6c-0.5,0-2.2-0.4-2.2-1.6C63.1,8,63.2,8,63.4,8c0.2,0,1.1,0.1,1.3,0.1c1.3,0,2.3-0.2,2.7-0.3
		c0.3-0.1,0.4-0.3,0.4-1.1c0-1.1-0.1-1.7-0.3-2.2c-0.1-0.2-0.5-0.9-0.5-1c0-0.2,0.4-0.3,0.6-0.3c0.5,0,1.8,0.6,1.8,1.3
		c0,0.1,0,0.3-0.1,0.6c0,0-0.1,0.7-0.1,1.6c0,0.4,0,0.6,0.3,0.6c0.1,0,2.8-0.6,3.3-0.7c1.3-0.2,1.5-0.2,1.5-0.7
		c0.1-0.4,0.1-1.4,0.1-1.7c0-0.6-0.1-1.1-0.3-1.4c0,0-0.4-0.7-0.4-0.8c0-0.2,0.4-0.2,0.5-0.2c1.3,0,1.8,1,1.8,1.5
		C76,3.4,75.7,4.4,75.7,4.6z"/>
	<path class="st0" d="M83.5,11.1c0-0.6,0.6-1.3,2-3C86.4,7,87.3,5.3,87.3,5c0-0.1-0.1-0.1-0.2-0.1C86.8,4.9,86,5,85.8,5
		c-0.8,0-1.9-1-1.9-1.8c0-0.1,0-0.1,0.1-0.1c0.1,0,0.7,0.3,0.8,0.4c0.3,0.1,0.8,0.4,1.4,0.4c1.7,0,1.7-0.6,1.7-1
		c0-0.1,0-0.5-0.2-0.7c-0.1-0.1-0.5-0.5-0.5-0.6c0-0.2,0.5-0.3,0.9-0.3c0.5,0,1,0.2,1.1,0.7c0,0.3,0.1,0.3,0.9,0.4
		c0.1,0,0.9,0.1,0.9,0.5c0,0.7-1.5,1.3-2.5,1.7c-0.3,0.1-0.3,0.2-0.8,1.2c-0.5,1.2-0.6,1.3-1.1,2.3c-0.1,0.2-0.1,0.3-0.1,0.3
		c0,0,0,0.1,0.1,0.1c0.1,0,0.5-0.1,0.7-0.2c0.2-0.1,0.5-0.2,0.8-0.2c0.3,0,1.2,0,1.8,1.3c0.1,0.4,0.2,0.4,0.2,0.4
		c0.1,0,0.8-1,0.9-1.1c0.7-1,2.1-2.9,3.9-2.9c1.2,0,2,1,2,1.9c0,1-1.7,1.7-3,2.2c-0.5,0.2-2.9,1.2-3.3,1.4c-0.3,0.2-0.4,0.4-0.4,0.9
		c0,0.2,0,1.1,0,1.3c0,0.3,0,1.5-0.8,1.5c-0.6,0-0.7-0.7-0.7-1.1c0-0.2,0.1-1.2,0.1-1.2c0-0.1,0-0.3-0.1-0.3c-0.2,0-2,1.3-2,2.5
		c0,1.4,2.1,1.4,2.7,1.4c0.5,0,0.9,0,1.3-0.1c0.3,0,1.6-0.4,1.9-0.4c0.4,0,1,0.2,1,0.7c0,1.3-3.3,1.4-3.8,1.4
		c-2.7,0-4.1-1.1-4.1-2.7c0-1.3,0.8-2,2.8-3.6c0.2-0.2,0.3-0.4,0.3-0.7c0-0.9-0.2-2.1-1-2.1c-0.8,0-2,1-2.6,2.2
		c-0.2,0.5-0.5,1-1.1,1C83.9,11.8,83.5,11.7,83.5,11.1z M88.8,3.2c0,0,1.1-0.3,1.1-0.5c0-0.3-0.5-0.3-0.7-0.3
		c-0.3,0-0.4,0.6-0.4,0.7C88.8,3.1,88.8,3.2,88.8,3.2z M90.8,10c0,0,0,0.1,0.1,0.1c0.1,0,4.2-1.7,4.2-3.1c0-0.5-0.5-0.6-0.7-0.6
		C92.6,6.4,90.8,9.6,90.8,10z"/>
	<path class="st0" d="M105.6,14.7c0.6,0,3.8-0.4,3.9-0.4c0.8,0,1.4,0.6,1.4,1c0,1.1-3.6,1.2-4.7,1.2c-2.1,0-6.5-0.4-6.5-3.7
		c0-0.8,0.2-1,0.3-1c0.1,0,0.3,0.7,0.3,0.8c0.6,1.5,2.5,2.1,4,2.1C104.4,14.6,105.4,14.7,105.6,14.7z M105.6,3c0.3,0,1.4,0,1.7,0
		c1.4,0,2.1,1.4,2.1,1.7c0,0.4-0.2,0.4-1.6,0.5c-1.1,0.1-1.9,0.5-2.7,1c-0.2,0.1-0.2,0.1-0.3,0.1c0,0-0.1,0-0.1,0
		c0-0.2,1.2-1.2,1.2-1.4c0-0.1-0.1-0.1-0.7-0.3c-2.7-0.5-3.7-1.8-3.7-2c0-0.1,0.1-0.1,0.1-0.1c0.1,0,0.6,0.2,0.7,0.2
		C103.2,2.9,104.4,3,105.6,3z"/>
	<path class="st0" d="M119.8,14.7c0.6,0,3.8-0.4,3.9-0.4c0.8,0,1.4,0.6,1.4,1c0,1.1-3.6,1.2-4.7,1.2c-2.1,0-6.5-0.4-6.5-3.7
		c0-0.8,0.2-1,0.3-1c0.1,0,0.3,0.7,0.3,0.8c0.6,1.5,2.5,2.1,4,2.1C118.7,14.6,119.6,14.7,119.8,14.7z M119.9,3c0.3,0,1.4,0,1.7,0
		c1.4,0,2.1,1.4,2.1,1.7c0,0.4-0.2,0.4-1.6,0.5c-1.1,0.1-1.9,0.5-2.7,1c-0.2,0.1-0.2,0.1-0.3,0.1c0,0-0.1,0-0.1,0
		c0-0.2,1.2-1.2,1.2-1.4c0-0.1-0.1-0.1-0.7-0.3c-2.7-0.5-3.7-1.8-3.7-2c0-0.1,0.1-0.1,0.1-0.1c0.1,0,0.6,0.2,0.7,0.2
		C117.5,2.9,118.7,3,119.9,3z"/>
	<path class="st0" d="M128.4,6.9c0-0.1,0.1-0.2,0.2-0.2c0.1,0,1.2,0.3,1.4,0.3c0.6,0,3.5-0.6,3.5-0.6c0.4-0.3,0.4-2.4,0.4-2.5
		c0-0.5,0-1.2-0.5-1.8C133,1.8,133,1.7,133,1.7c0-0.1,0.3-0.2,0.3-0.2c1.4,0,2.2,0.8,2.2,1.3c0,0-0.8,2.7-0.8,3.1
		c0,0.1,0.1,0.2,0.2,0.2c0.1,0,1.1-0.1,1.2-0.1c1.6,0,2.8,0.8,2.8,2.7c0,1.7-0.6,5.3-1.8,6.7c-0.6,0.7-1.4,1.3-2.1,1.3
		c-0.8,0-1-0.8-1.2-1.4c0-0.1-0.3-0.6-0.3-0.7c0-0.1,0-0.1,0.1-0.1c0.1,0,0.5,0.1,0.5,0.1c0.4,0.1,0.8,0.1,1.1,0.1
		c0.6,0,1.4-0.3,2-2.6c0.2-0.8,0.7-2.5,0.7-3.6c0-1.5-0.8-1.6-1.5-1.6c-0.7,0-1.9,0.3-2,0.5c-0.1,0.1-0.1,0.2-0.3,0.9
		c-0.8,2.9-2.9,8-4.6,8c-0.5,0-0.7-0.3-0.7-0.7c0-0.4,0.1-0.6,1.4-2c0.6-0.6,1.5-1.6,2.6-4.7c0.1-0.2,0.3-0.8,0.3-1
		c0-0.1,0-0.2-0.1-0.2c-0.5,0-2.4,0.8-2.8,0.8C129.4,8.7,128.4,7.4,128.4,6.9z M143.1,11.3c-0.2,0-1.2-0.6-1.4-0.6
		c-0.1,0-0.7-0.1-0.7-0.1c0-0.1,0.7-0.5,0.8-0.6c0.8-0.6,0.9-0.6,0.9-1.2c0-0.4-0.1-1.7-1.7-2.4c-0.2-0.1-0.5-0.2-0.5-0.3
		c0-0.1,0.1-0.1,0.1-0.1c2.7,0,3.7,2.6,3.7,3.7C144.3,9.8,144,11.3,143.1,11.3z"/>
	<path class="st0" d="M154.7,3.2c0,0.4-0.3,1-1.1,1c-0.2,0-0.3,0-1.2-0.4c-0.3-0.1-0.7-0.2-1-0.2c-0.9,0-1.5,0.6-1.5,1.4
		c0,0.2,0.1,1.1,0.1,1.3c0,0.2-0.2,1.4-0.3,1.7c-0.1,0.8-0.3,2.6-0.3,3.1c0,0.3,0,1,0.5,1c0.4,0,1-0.4,1.2-0.5
		c1.3-0.8,2.1-1.3,3.4-1.3c2.3,0,3.8,1.6,3.8,3.3c0,2.6-3.3,4.3-6.4,4.3c-0.3,0-0.6,0-0.6-0.2c0-0.1,0.5-0.2,0.6-0.3
		c2.6-0.6,4.6-2.2,4.6-4.2c0-2.2-1.9-2.3-2.3-2.3c-0.7,0-1.8,0.2-2.7,1.6c-1,1.4-1.2,1.7-1.9,1.7c-0.9,0-1.6-1-1.6-2.6
		c0-0.9,0.5-4.7,0.6-5.5c0.1-0.7,0.1-1.8,1.9-2.5c1.2-0.5,1.7-0.7,1.7-1.3c0-0.4-0.1-0.6-0.4-0.9c0-0.1-0.1-0.2,0-0.3
		C152.1,0.8,154.7,2.1,154.7,3.2z"/>
	<path class="st0" d="M162.8,0c0.7,0,1.2,0.6,1.2,1.2c0,1.7-1.9,3.3-2.1,3.3c-0.1,0-0.2-0.1-0.2-0.2c0-0.1,0.5-0.5,0.6-0.6
		c0.2-0.2,0.4-0.5,0.4-0.8c0-0.1,0-0.3-0.2-0.4c-0.6-0.4-0.9-0.6-0.9-1.2C161.6,0.5,162.2,0,162.8,0z M166,0c0.7,0,1.2,0.6,1.2,1.2
		c0,1.7-1.9,3.3-2.1,3.3c-0.1,0-0.2-0.1-0.2-0.2c0-0.1,0.5-0.5,0.6-0.6c0.2-0.2,0.4-0.5,0.4-0.8c0-0.1,0-0.3-0.2-0.4
		c-0.6-0.4-0.9-0.6-0.9-1.2C164.8,0.5,165.4,0,166,0z"/>
	<path class="st0" d="M8,34.7c0,0.2-0.1,0.3-0.6,0.4c-0.2,0.1-0.6,0.7-1.1,1.4c-2.4,4-5.8,5.8-6.2,5.8c-0.1,0-0.1,0-0.1-0.1
		C0,42,0,42,0.4,41.7c2.8-2.2,4.4-5.7,4.7-6.3c0.1-0.3,0.7-2.1,0.7-2.1C6,33.2,8,34.3,8,34.7z M10.1,40.8c-0.5,0-0.5,0-0.7,1.2
		c-0.2,1.8-0.6,5.5-4.2,7.5c-1.7,1-3.9,1.4-4,1.4c-0.1,0-0.3,0-0.3-0.1c0-0.1,0.1-0.1,0.5-0.3c1.5-0.5,3.1-1.5,4.1-2.5
		c1.6-1.6,2.4-4.4,2.4-6.6c0-0.5-0.2-0.5-0.5-0.5H6.7c-0.8,0-1.8,0-2.2,0c-0.1,0-0.4,0.1-0.4,0.1c-0.1,0-0.1-0.1-0.2-0.1l-0.4-0.5
		c-0.1-0.1-0.1-0.1-0.1-0.1c0,0,0-0.1,0.1-0.1c0.1,0,0.8,0.1,0.9,0.1c1,0,1.9,0.1,2.9,0.1h4.6c0.9,0,1.1,0,1.4-0.4
		c0.3-0.3,0.5-0.5,0.7-0.5c0.3,0,1.6,1,1.6,1.4c0,0.1-0.3,0.5-0.4,0.6c-0.1,0.2-0.2,2.6-0.3,3.1c-0.2,2.5-0.4,4.3-1,5.2
		c-0.6,0.9-1.8,1.3-2.1,1.3c-0.2,0-0.2-0.1-0.4-0.7c-0.1-0.5-0.8-0.8-1.9-1.1c-0.5-0.1-0.7-0.2-0.7-0.3c0-0.1,0.2-0.1,0.2-0.1
		c0.1,0,0.7,0.1,0.8,0.1C10.9,49,11,49,11.2,49c1,0,1.6-0.2,1.9-2.3c0.2-1.6,0.4-4,0.4-5.1c0-0.6,0-0.8-0.6-0.8H10.1z M11.1,34
		c-0.5,0-1.2,0-1.7,0c-0.1,0-0.4,0-0.4,0c-0.1,0-0.1,0-0.2-0.1l-0.4-0.5c0,0-0.1-0.1-0.1-0.1c0,0,0,0,0.1,0c0.1,0,0.7,0.1,0.9,0.1
		c0.2,0,1.1,0.1,1.3,0.1c0.5,0,0.8-0.4,0.9-0.5c0.4-0.6,0.5-0.7,0.6-0.7c0.3,0,1.8,1,1.8,1.5c0,0.2-0.1,0.2-0.6,0.4
		c-0.1,0-0.4,0.1-0.4,0.4c0,1.1,2.8,4.4,6.3,4.8c0.1,0,0.3,0,0.3,0.2c0,0.1-0.5,0.2-0.6,0.3c-0.5,0.3-1,0.6-1.3,1
		c0,0.1-0.3,0.3-0.3,0.3c-0.7,0-4.2-2.9-5-6.1c-0.2-0.9-0.3-1-0.8-1H11.1z"/>
	<path class="st0" d="M25.7,36.1c0.7,0,1.1,0,1.3-0.3c0.3-0.5,0.3-0.6,0.5-0.6c0.3,0,1.3,0.9,1.3,1.2c0,0.3-0.1,0.3-1.1,0.3h-2.8
		c-0.4,0-1.7,0-2.1,0.1c-0.1,0-0.4,0-0.4,0c-0.1,0-0.1,0-0.2-0.1l-0.4-0.5c-0.1-0.1-0.1-0.1-0.1-0.1c0,0,0,0,0.1,0
		c0.1,0,2.7,0.1,3.2,0.1H25.7z M25.2,38.8c1,0,1.1,0,1.3-0.4c0.2-0.3,0.3-0.5,0.5-0.5c0.3,0,1.2,0.8,1.2,1.1c0,0.3-0.1,0.3-1.1,0.3
		h-2.4c-0.2,0-1.3,0.1-1.4,0.1c-0.1,0-0.1-0.1-0.2-0.1l-0.4-0.5c0-0.1-0.1-0.1-0.1-0.1c0,0,0-0.1,0.1-0.1c0.1,0,1.7,0.1,2.1,0.1
		H25.2z M24.3,34.1c-0.1,0-0.9,0.1-0.9,0.1c-0.1,0-0.1,0-0.2-0.1l-0.4-0.5c-0.1-0.1-0.1-0.1-0.1-0.1c0,0,0,0,0.1,0
		c0.3,0,1.3,0.1,1.5,0.1c0.7,0,0.9,0,1.1-0.1c0.2-0.1,0.7-0.8,0.9-0.8c0.3,0,1.3,0.8,1.3,1.1c0,0.3-0.1,0.3-1.1,0.3H24.3z
		 M24.8,41.8c-0.2,0-1.3,0.1-1.4,0.1s-0.1,0-0.2-0.1l-0.4-0.5c-0.1-0.1-0.1-0.1-0.1-0.1s0,0,0.1,0c0.1,0,1.7,0.1,2,0.1
		c1,0,1.1,0,1.3-0.1c0.2-0.1,0.7-0.7,0.8-0.7c0.3,0,1.2,0.7,1.2,1c0,0.3-0.1,0.3-1.1,0.3H24.8z M24.8,48.7c-0.6,0-0.6,0.3-0.6,0.9
		c0,0.4,0,0.6-0.3,0.7c-0.1,0-0.5,0.2-0.7,0.2c-0.5,0-0.5-0.4-0.5-0.7c0-0.4,0.1-2.9,0.1-3.5c0-1,0-1.5-0.1-1.8
		c-0.1-0.8-0.1-0.9-0.1-0.9c0-0.4,0.1-0.4,0.3-0.4c0.1,0,0.8,0.3,1,0.4c0.3,0.1,0.5,0.1,0.7,0.1h1.1c0.2,0,0.5,0,0.8-0.2
		c0.2-0.1,0.2-0.2,0.4-0.2c0.1,0,1.6,0.6,1.6,1c0,0.1-0.1,0.2-0.5,0.5c-0.3,0.2-0.3,0.5-0.3,0.8c0,0.5,0,3.1,0,3.6
		c0,0.9-0.9,0.9-1,0.9c-0.4,0-0.4-0.2-0.5-0.8c-0.1-0.4-0.4-0.4-0.6-0.4H24.8z M24.8,44.1c-0.1,0-0.4,0-0.5,0.1
		c-0.2,0.1-0.2,0.3-0.2,2.1c0,1.6,0,1.8,0.7,1.8h0.9c0.7,0,0.7,0,0.7-2.6c0-1.3,0-1.4-0.7-1.4H24.8z M35.1,43.7
		c-0.1,0-0.3,0-0.3,0.2c0,0.3,1,2.2,1.3,2.2c0.3,0,1-1.1,1-1.2c0.3-0.7,0.3-0.7,0.4-0.7c0.1,0,1.2,0.6,1.2,0.9
		c0,0.1-0.1,0.2-0.1,0.2c-0.1,0.1-0.8,0.3-0.9,0.4c-0.6,0.3-1.2,0.7-1.2,0.9c0,0.2,0,0.2,0.4,0.5c1.1,1,2,1.5,4,2.1
		c0.1,0,0.6,0.1,0.6,0.1s-0.1,0.1-0.1,0.1c-0.3,0-0.9,0.2-1.6,0.7c-0.1,0.1-0.4,0.5-0.5,0.5c-0.1,0-2.1-1.2-3.1-2.7
		c-0.1-0.2-0.2-0.3-0.4-0.3c-0.1,0-0.2,0-1,0.5c-0.6,0.4-4,2.4-4,2.4c-0.3,0.3-0.4,0.4-0.5,0.4c-0.3,0-1-1.4-1-1.6
		c0,0,0-0.1,0.1-0.1c0.1,0,0.3,0,0.4,0c0.4,0,1.2-0.2,1.4-0.3c0.3-0.1,0.3-0.3,0.3-1.4c0-0.4,0-0.7-0.2-0.7s-1.1,0.6-1.3,0.7
		c-1.1,0.6-1.9,0.8-1.9,0.8c-0.1,0-0.1,0-0.1-0.1c0,0,0.7-0.5,0.8-0.5c1.6-1.2,3.7-3.3,3.7-3.7c0-0.2-0.2-0.2-0.4-0.2
		c-0.7,0-1.9,0-2.5,0.1c-0.1,0-0.4,0-0.4,0c-0.1,0-0.1,0-0.2-0.1l-0.4-0.5c-0.1-0.1-0.1-0.1-0.1-0.1s0,0,0.1,0
		c0.4,0,2.4,0.1,2.8,0.1c0.5,0,0.5-0.2,0.5-1.2c0-0.4,0-0.7-0.5-0.7c-0.2,0-1.1,0.1-1.2,0.1c-0.1,0-0.1,0-0.2-0.1l-0.4-0.5
		c-0.1-0.1-0.1-0.1-0.1-0.1s0,0,0.1,0c0.2,0,1.6,0.1,1.9,0.1c0.5,0,0.5-0.3,0.5-1.1c0-0.7-0.1-0.7-0.6-0.7c-0.2,0-1.4,0.1-1.5,0.1
		c-0.1,0-0.1,0-0.2-0.1l-0.4-0.5c-0.1-0.1-0.1-0.1-0.1-0.1s0,0,0.1,0c0.1,0,1.9,0.1,2.3,0.1c0.2,0,0.4,0,0.4-0.4
		c0-0.3,0-1.2-0.6-1.2c-0.2,0-1.3,0.4-1.5,0.5c-0.4,0.1-1.8,0.5-1.9,0.5c-0.1,0-0.1,0-0.1-0.1c0-0.1,0.6-0.4,0.7-0.4
		c1.3-0.6,2.4-1.3,2.8-1.7c0.1-0.1,0.5-0.7,0.6-0.7c0.1,0,1.6,0.8,1.6,0.9c0,0.2-1.5,0.6-1.5,0.8c0,0.1,0.5,0.3,0.6,0.3
		c0.9,0.3,1,0.3,1,0.5c0,0.1-0.1,0.2-0.3,0.3C33,37.7,33,37.8,33,38c0,0.3,0.3,0.3,0.5,0.3h1.6c0.3,0,0.6,0,0.6-0.4
		c0-0.1,0-0.5-0.1-0.7c0-0.1-0.2-0.5-0.2-0.6c0-0.1,0.1-0.1,0.1-0.1c0.1,0,0.2,0,0.9,0.3c0.7,0.2,0.7,0.3,0.7,0.4
		c0,0.1,0,0.1-0.2,0.3c0,0.1-0.1,0.1-0.1,0.4c0,0.2,0,0.4,0.4,0.4c0.8,0,1.1,0,1.2-0.3c0.3-0.5,0.3-0.5,0.5-0.5
		c0.3,0,1.3,0.8,1.3,1.2c0,0.3-0.4,0.3-1.1,0.3h-1.7c-0.5,0-0.6,0.2-0.6,0.7c0,1,0,1.1,0.5,1.1c0.4,0,0.6-0.2,0.8-0.4
		c0.4-0.5,0.4-0.6,0.5-0.6c0.3,0,1.3,0.9,1.3,1.2c0,0.3-0.4,0.3-1.1,0.3h-1.3c-0.4,0-0.6,0.2-0.6,0.5c0,1.4,0.1,1.4,0.7,1.4
		c0.7,0,0.8,0,1.1-0.5c0.1-0.3,0.3-0.6,0.5-0.6c0.3,0,1.5,0.9,1.5,1.3c0,0.3-0.4,0.3-1.1,0.3H35.1z M36.6,34c1.1,0,1.2,0,1.3-0.4
		c0.2-0.4,0.3-0.7,0.5-0.7c0.2,0,1.8,1.1,1.8,1.4c0,0.3-0.4,0.3-1.1,0.3h-6.5c-1.9,0-2.4,0-2.7,0c-0.1,0-0.4,0.1-0.4,0.1
		c-0.1,0-0.1-0.1-0.2-0.1L28.9,34c0-0.1-0.1-0.1-0.1-0.1c0,0,0-0.1,0.1-0.1c0.1,0,0.8,0.1,0.9,0.1c1.7,0.1,2.3,0.1,3,0.1
		c0.4,0,0.5-0.2,0.5-0.6c0-0.1,0-0.7-0.1-0.9c0-0.1-0.1-0.3-0.1-0.3c0-0.1,0-0.2,0.3-0.2c0.2,0,2,0.2,2,0.5c0,0.1,0,0.1-0.3,0.3
		c-0.1,0.1-0.3,0.2-0.3,0.8c0,0.4,0.3,0.5,0.6,0.5H36.6z M35.6,46.7c-0.3-0.6-0.7-1.8-0.9-2.6c0-0.1-0.1-0.3-0.2-0.3
		c-0.1,0-1.6,1.6-1.6,1.7c-0.1,0.3-0.1,0.4-0.1,1.8c0,0.8,0,1,0.4,1c0.2,0,2.5-0.9,2.6-1c0,0,0.1-0.1,0.1-0.1
		C35.7,47,35.6,46.8,35.6,46.7z M33.6,38.9c-0.5,0-0.5,0.2-0.5,0.9c0,0.8,0,0.9,0.5,0.9h1.6c0.5,0,0.5-0.2,0.5-0.7
		c0-1.1,0-1.2-0.5-1.2H33.6z M35.2,43.2c0.5,0,0.5-0.2,0.5-1c0-0.7,0-0.9-0.5-0.9h-1.6c-0.6,0-0.6,0.2-0.6,1c0,0.7,0,0.9,0.6,0.9
		H35.2z M35.7,35.1c0,0-0.3,0-0.3-0.1c0-0.1,0.4-0.1,0.4-0.1c0.2,0,0.9,0.1,1.7,0.2c1.2,0.3,2,0.5,2,1.3c0,0.3-0.1,0.6-0.5,0.6
		c-0.1,0-2.5-1.5-2.8-1.6C36,35.3,35.9,35.3,35.7,35.1z"/>
	<path class="st0" d="M48.5,39c-0.2,0-0.5,0.1-0.6,0.3c0,0.1-0.1,4.7-0.1,5.1c0,0.2,0,1.1,0,1.3c0,0.1,0,0.5,0.3,0.5
		c0.2,0,2.3-0.7,2.4-0.7c0,0,0.1,0,0.1,0.1c0,0.4-4.9,3-5.3,3.4c-0.1,0.1-0.4,0.6-0.5,0.6c-0.3,0-1.4-1.6-1.4-1.9
		c0-0.1,0.2-0.2,0.4-0.2s1-0.2,1.2-0.3c1.2-0.3,1.3-0.4,1.4-0.6c0-0.1,0-5.9,0-6.8c0-0.5-0.1-0.7-0.6-0.7c-0.1,0-0.8,0-1.2,0
		c0,0-0.5,0-0.5,0c-0.1,0-0.1,0-0.2-0.1l-0.4-0.5c0-0.1-0.1-0.1-0.1-0.1s0,0,0.1,0c0.1,0,0.4,0,0.4,0c0.4,0,1.4,0.1,1.9,0.1
		c0.3,0,0.5,0,0.6-0.3c0-0.1,0-2.5,0-2.9c0-0.3,0-1.7-0.1-2c0-0.1-0.1-0.4-0.1-0.5s0-0.2,0.2-0.2c0.2,0,2,0.5,2,0.8
		c0,0.1-0.3,0.4-0.4,0.5c-0.2,0.4-0.2,2.9-0.2,3.5c0,1,0,1.2,0.3,1.2c0.3,0,0.4-0.1,0.7-0.4c0.4-0.6,0.5-0.6,0.6-0.6
		c0.2,0,1.4,1.1,1.4,1.4c0,0.2-0.1,0.2-0.9,0.2H48.5z M57.5,38.4c-0.8,0.3-0.8,0.5-0.8,2.1c0,0.9,0.1,4.8,0.1,5.6c0,0.3,0,1-1.1,1
		c-0.5,0-0.5-0.4-0.5-0.6c0-0.3,0.1-3.6,0.1-4.3c0-0.9,0-1.6,0-2.2c0-0.2,0-0.5-0.3-0.5c0,0-0.1,0-0.2,0.1l-1.3,0.6
		c-0.6,0.3-0.6,0.6-0.6,1c0,4.7,0,4.8,0,5.3c0.1,2.4,0.2,2.5,3.9,2.5c3.9,0,3.9-0.3,4.5-2.4c0.1-0.3,0.3-1.9,0.4-1.9
		c0.1,0,0.2,0.2,0.2,0.5c0,0.6,0.1,2.4,0.5,2.8c0.3,0.3,0.4,0.4,0.4,0.5c0,0.4-0.5,1.1-1.3,1.4c-0.7,0.3-2.6,0.3-4.8,0.3
		c-5,0-5.1-0.7-5.1-3.6c0-0.8,0-4.3,0-5c0-0.1,0-0.4-0.3-0.4c-0.2,0-1.4,0.7-1.4,0.7c0,0-0.1,0-0.2-0.1l-0.5-0.3
		c-0.1,0-0.1-0.1-0.1-0.1c0.5-0.2,1.2-0.5,1.6-0.6c0.9-0.4,0.9-0.5,0.9-1.7c0-0.4,0-1.3-0.1-2.7c0-0.2-0.1-1.1-0.1-1.3
		c0-0.1,0-0.2,0.1-0.2c0,0,1.3,0.3,1.4,0.4c0.4,0.1,0.6,0.2,0.6,0.4c0,0.1-0.3,0.4-0.3,0.5c-0.1,0.3-0.1,0.6-0.1,1.3
		c0,0.3,0,1.4,0,1.7s0,0.5,0.3,0.5c0.1,0,0.1,0,0.3-0.1l1.3-0.5c0.5-0.2,0.5-0.6,0.5-1c0-3,0-4-0.1-4.9c0-0.1-0.1-0.7-0.1-0.8
		c0-0.1,0-0.2,0.1-0.2c0.2,0,1.4,0.4,1.6,0.4c0.3,0.1,0.5,0.2,0.5,0.3c0,0.1-0.5,0.5-0.5,0.6c-0.1,0.4-0.1,0.9-0.1,1.4v2.5
		c0,0.2,0,0.6,0.3,0.6c0.1,0,0.2,0,0.4-0.1l1.3-0.6c0.5-0.2,0.6-0.4,0.8-1c0.2-0.5,0.2-0.6,0.3-0.6c0.1,0,0.7,0.4,0.9,0.5
		c0.7,0.5,0.8,0.5,0.8,0.7c0,0.2-0.5,0.8-0.5,1c-0.2,0.8,0,5.4-0.3,6.3c-0.3,0.8-1.4,1.2-1.7,1.2c-0.5,0-0.5-0.2-0.5-0.5
		c0-0.5-0.7-1-1.1-1.2c-0.1,0-0.2-0.1-0.2-0.1s0-0.1,0.1-0.1c0.2,0,1.2,0.1,1.5,0.1c0.6,0,0.7-0.1,0.7-0.4c0.1-0.5,0.1-3.8,0.1-4.4
		c0-0.8,0-1-0.4-1c-0.1,0-0.1,0-0.3,0.1L57.5,38.4z"/>
	<path class="st0" d="M66.1,37.1c0.9,0,1.2-0.1,4.1-0.9c1.9-0.5,6.7-1.9,8.1-1.9c0.8,0,1.7,0.3,1.7,1c0,0.5-0.5,0.8-0.9,0.8
		c-0.3,0-1.5-0.2-1.7-0.2c-2.7,0-5.7,2.5-5.7,7.9c0,3.5,1.3,3.8,2.6,3.8c0.3,0,1.8-0.1,2-0.1c0.7,0,1,0.3,1,0.8
		c0,1.1-2.3,1.1-2.4,1.1c-4.3,0-4.3-3.5-4.3-4.5c0-0.9,0-5.4,3.1-8.1c0.1-0.1,0.5-0.4,0.5-0.4c0,0-0.1,0-0.1,0
		c-1.2,0-5.6,1.8-6.3,2.2c-0.3,0.1-0.5,0.3-0.7,0.3c-1.1,0-2.1-1.4-1.8-1.7C65.4,36.9,66,37.1,66.1,37.1z M79.6,41.7
		c0,0.5-0.4,0.9-0.7,0.9c-0.4,0-0.6-0.4-0.9-1.2c-0.2-0.6-0.4-0.8-1.1-1.6c-0.1-0.1-0.2-0.3-0.2-0.4c0-0.1,0.2-0.1,0.4-0.1
		C78.9,39.8,79.6,41.1,79.6,41.7z M82.1,40.7c0,0.5-0.3,0.8-0.6,0.8c-0.5,0-0.7-0.6-0.9-1.1c-0.2-0.5-0.8-1.2-1.4-1.7
		c-0.1-0.1-0.2-0.2-0.2-0.3c0-0.1,0.2-0.1,0.3-0.1c0.2,0,0.4,0.1,0.5,0.1C81,38.8,82.1,39.7,82.1,40.7z"/>
	<path class="st0" d="M87.9,36.8c-0.7,0-1.4,0-2.2,0c-0.1,0-0.8,0.1-0.9,0.1c-0.1,0-0.1,0-0.2-0.1l-0.5-0.5c0-0.1-0.1-0.1-0.1-0.1
		c0,0,0,0,0.1,0c0.1,0,0.8,0.1,0.9,0.1c1.3,0.1,2.1,0.1,2.9,0.1h3.6c0.9,0,1-0.3,1-0.8c0-1.3,0-1.5-0.9-1.5c-0.9,0-4.7,0-5.4,0
		c-0.3,0-1.5-0.1-1.5-0.1c0-0.1,0.1-0.1,0.2-0.1c1.6,0,9-0.6,11.9-1.7c0.1,0,0.7-0.4,0.7-0.4c0,0,1.9,1.4,1.9,1.8
		c0,0.1-0.1,0.1-0.3,0.1c-0.9,0-3.4,0.2-4.4,0.3c-0.9,0.1-0.9,0.5-0.9,0.9c0,0.9,0,1.5,0.9,1.5h3.9c0.8,0,0.9,0,1.2-0.3
		c0.1-0.2,0.7-1,0.9-1c0.1,0,2.1,1.3,2.1,1.6c0,0.3-0.6,0.3-1.3,0.3h-5.6c-0.2,0-1,0-1,0.1c0,0.5,3.2,3.1,7.3,3.8
		c0.6,0.1,0.7,0.1,0.7,0.3c0,0.1-0.3,0.1-0.3,0.1c-0.7,0-1.3,0.4-1.7,1c-0.1,0.1-0.2,0.3-0.4,0.3c-0.4,0-3.7-2.1-5.9-5
		c-0.4-0.5-0.5-0.7-0.7-0.7C94,36.8,94,37,94,37.1c0,0.6,0.1,3.5,0.1,4c0,0.3,0,0.9-1.2,0.9c-0.4,0-0.5-0.2-0.5-0.6
		c0-0.2,0.1-1,0.1-1.2c0-0.6,0-1.5,0-2.1c0-0.1,0-0.3-0.2-0.3c-0.1,0-0.7,0.4-0.8,0.5c-2.9,2.3-4.8,3-6,3.5
		c-0.8,0.3-1.7,0.6-1.9,0.6c-0.1,0-0.1-0.1-0.1-0.1c0-0.1,0.1-0.1,0.3-0.2c3.1-1.3,6.9-4.6,6.9-5.2c0-0.2-0.3-0.2-0.7-0.2H87.9z
		 M90.1,49.3c-0.6,0-0.9,0-0.9,0.6c-0.1,0.7-0.1,1.1-1.2,1.1c-0.5,0-0.5-0.4-0.5-0.7c0-0.1,0-0.7,0-0.9c0.1-1.3,0.1-2.6,0.1-3.8
		c0-1.1,0-2.7-0.1-3.3c0-0.1-0.1-0.5-0.1-0.6c0-0.1,0-0.2,0.2-0.2c0.3,0,1.3,0.7,1.6,0.8c0.1,0,0.3,0.1,1,0.1H96c0.6,0,1,0,1.2-0.1
		c0.1-0.1,0.6-0.7,0.7-0.7c0.1,0,1.7,0.8,1.7,1.1c0,0.1-0.1,0.2-0.4,0.4C99,43.4,99,43.6,99,43.9c0,1.4,0,2.3,0.1,4
		c0,0.3,0.1,1.6,0.1,1.9c0,0.8-0.8,0.9-1.1,0.9c-0.6,0-0.6-0.3-0.7-1c0-0.4-0.4-0.4-0.8-0.4H90.1z M96.5,45.4c1,0,1-0.1,1-1.2
		c0-1.1,0-1.3-1-1.3H90c-1,0-1,0.1-1,1.2c0,1.1,0,1.2,1,1.2H96.5z M96.6,48.7c0.5,0,0.8,0,0.9-0.4c0-0.1,0-1.1,0-1.7
		c0-0.6-0.3-0.7-0.9-0.7H90c-0.5,0-0.8,0-0.9,0.4v1.7c0,0.6,0.2,0.7,0.9,0.7H96.6z"/>
	<path class="st0" d="M109.8,33.4c0,0.1-0.3,0.5-0.4,0.6c-0.1,0.4-0.1,0.9-0.1,4.8c0,4.5-0.1,8.1-2.5,10.6c-0.6,0.6-1.4,1.2-1.5,1.2
		c0,0,0-0.1,0-0.1c0-0.1,0-0.2,0.4-0.6c2.2-2.6,2.2-5.3,2.2-13.8c0-1.9,0-2.1-0.1-2.6c0-0.2-0.2-0.6-0.2-0.7c0-0.2,0.2-0.2,0.4-0.2
		C108,32.7,109.8,33.1,109.8,33.4z M113.8,48.1c0-0.5,0.1-1.4,0.1-2c0.1-0.9,0.1-2.3,0.1-2.7c0-5.5,0-6.1,0-7.6
		c0-0.2-0.1-1.6-0.1-1.7c0-0.3,0.1-0.4,0.3-0.4c0.3,0,0.4,0,1.5,0.4c0.1,0,0.3,0.1,0.3,0.3c0,0.1-0.3,0.5-0.4,0.6
		c-0.1,0.2-0.1,0.6-0.1,0.9v6.1c0,1.4,0,3.8,0,4.7c0,0.1,0,0.8,0,0.9c0,0.4,0,0.6-0.2,0.8c-0.3,0.3-0.7,0.4-1,0.4
		c-0.1,0-0.3,0-0.4-0.1C113.8,48.7,113.8,48.4,113.8,48.1z M120.6,49.9c0-0.2,0-0.5,0.1-0.7c0.1-0.5,0.1-1.2,0.1-1.3
		c0-13,0-14.4-0.2-15.4c0-0.1,0-0.1,0-0.2c0-0.1,0.1-0.1,0.1-0.1c0,0,2.2,0.4,2.2,0.8c0,0.2-0.5,0.7-0.5,0.8
		c-0.2,0.5-0.2,2.3-0.2,4.6c0,6,0,7.2,0.1,8.5c0,0.4,0.1,2.2,0.1,2.5c0,1.1-0.8,1.2-1.1,1.2c-0.1,0-0.4,0-0.5-0.1
		C120.6,50.3,120.6,50,120.6,49.9z"/>
	<path class="st0" d="M134.8,35.5c0,0.1,0,0.1,0,0.2c0.1,0.7,0.2,1.3,0.2,2.3c0,1.4-0.3,3.4-2.2,6.1c-1.7,2.6-2.8,3.1-3.6,3.1
		c-1.4,0-2.6-2.2-2.6-4.7c0-1.1,0.2-3.2,2.3-5.3c2.7-2.7,5.5-2.7,6.7-2.7c1.9,0,2.8,0.4,3.4,0.7c2.3,1.1,3.7,3.4,3.7,6.1
		c0,2.7-1.6,6.1-5.3,7.4c-1.8,0.6-3.2,0.8-3.5,0.8c-0.1,0-0.2,0-0.2-0.1c0-0.1,0-0.1,0.6-0.3c2.2-0.9,6.8-2.7,6.8-7.9
		c0-0.8-0.1-5.8-5.8-5.8C134.8,35.2,134.8,35.3,134.8,35.5z M128,41.9c0,1.4,0.5,3.2,1.8,3.2c0.6,0,1.1-0.3,2.6-2.4
		c1.1-1.7,2.1-4,2.1-6.1c0-1.3-0.1-1.4-0.4-1.4C132.1,35.2,128,37.9,128,41.9z"/>
	<path class="st0" d="M150.7,37.7c-0.2,0.2-1.5,2-1.5,2.2c0,0.2,0.2,0.3,0.4,0.4c0.3,0.1,0.5,0.2,0.5,0.4c0,0.1-0.3,0.3-0.4,0.4
		c-0.2,0.2-0.2,0.3-0.2,1.5c0,1,0,6.2,0,7.4c0,1.2-0.9,1.2-1,1.2c-0.5,0-0.5-0.3-0.5-0.6c0-0.1,0.2-2.8,0.2-3.1c0-0.7,0-1.2,0-5.9
		c0-0.1,0-0.3-0.1-0.3c-0.1,0-2.3,2.6-2.6,2.6c0,0,0,0,0,0c0-0.1,0-0.1,0.2-0.5c1.7-3,3-5.3,3.6-6.7c0.1-0.4,0.2-0.5,0.3-0.5
		c0.1,0,1.8,0.8,1.7,1.2C151.3,37.3,150.8,37.6,150.7,37.7z M151.3,33c0,0.1-0.1,0.2-0.5,0.3c-0.1,0-0.3,0.2-0.7,0.6
		c-0.9,1.1-3.7,3.8-4,3.8c0,0-0.1,0-0.1-0.1c0,0,1-1.7,1.2-1.9c0.4-0.7,1.6-2.8,1.8-3.2c0.1-0.5,0.1-0.5,0.3-0.5s0.4,0.1,0.8,0.3
		C150.9,32.5,151.3,32.7,151.3,33z M156.2,44.2c-0.7,0-0.7,0.1-0.7,2.2c0,0.7,0,1,0.5,1c0.5,0,3-0.3,3.4-0.3c0.1,0,0.1,0,0.1,0.1
		c0,0.1-0.3,0.2-0.4,0.2c-2,0.8-3.4,1-6,1.6c-0.7,0.1-0.9,0.3-1,0.4c-0.2,0.2-0.3,0.3-0.5,0.3c-0.3,0-0.4-0.4-0.7-1
		c-0.1-0.2-0.5-1.2-0.5-1.2c0-0.1,0-0.2,0.1-0.2c0.1,0,0.3,0.1,0.4,0.1c0.3,0.1,0.6,0.1,2,0.1c0.8,0,0.9,0,1-0.3
		c0.1-0.1,0.1-1.4,0.1-1.6c0-1.2,0-1.4-0.6-1.4c-0.4,0-1.5,0-1.9,0.1c0,0-0.3,0-0.3,0c-0.1,0-0.1,0-0.2-0.1l-0.4-0.5
		c-0.1-0.1-0.1-0.1-0.1-0.1c0,0,0-0.1,0.1-0.1c0.4,0,2.3,0.1,2.8,0.1c0.6,0,0.6-0.2,0.6-1.7c0-0.2-0.1-1.2-0.1-1.4
		c0-0.2,0-0.3,0.2-0.3c0,0,1.9,0.4,1.9,0.8c0,0.1-0.4,0.5-0.5,0.6c-0.1,0.1-0.1,0.3-0.1,1.3c0,0.6,0.4,0.6,0.6,0.6
		c0.6,0,0.8,0,0.9-0.1c0.1-0.1,0.7-0.8,0.9-0.8c0.3,0,1.3,0.9,1.3,1.2c0,0.1-0.1,0.2-0.2,0.2c-0.2,0.1-0.4,0.1-1,0.1H156.2z
		 M156.2,35.9c-0.7,0-0.7,0.1-0.7,1.8c0,1.4,0,1.6,0.5,1.6c0.5,0,0.7-0.1,0.9-0.4c0.4-0.5,0.4-0.6,0.6-0.6c0.3,0,1.5,1,1.5,1.3
		c0,0.3-0.1,0.3-1.2,0.3h-3.7c-1.3,0-2.1,0-2.3,0c-0.1,0-0.4,0.1-0.4,0.1c-0.1,0-0.1,0-0.2-0.1l-0.4-0.5c-0.1-0.1-0.1-0.1-0.1-0.1
		c0,0,0-0.1,0.1-0.1c0.4,0,2.4,0.1,2.8,0.1c0.6,0,0.6-0.3,0.6-1.4c0-1.8,0-2-0.5-2c-0.3,0-1.7,0.1-1.9,0.1c-0.1,0-0.1,0-0.2-0.1
		l-0.4-0.5c-0.1-0.1-0.1-0.1-0.1-0.1s0,0,0.1,0c0.3,0,2.1,0.1,2.4,0.1c0.6,0,0.6-0.4,0.6-1.1c0-0.5,0-1-0.1-1.5
		c0-0.1-0.2-0.6-0.2-0.7c0-0.1,0.1-0.1,0.2-0.1c0.1,0,2.1,0.4,2.1,0.8c0,0.1-0.1,0.2-0.3,0.4c-0.4,0.3-0.4,0.4-0.4,1.6
		c0,0.3,0,0.5,0.4,0.5c0.1,0,0.4,0,0.6-0.1c0.1-0.1,0.7-0.7,0.9-0.7c0.3,0,1.3,0.8,1.3,1.1c0,0.3-0.4,0.3-1.1,0.3H156.2z
		 M159.1,38.9c-0.1-0.1-0.1-0.1-0.1-0.1c0,0,0,0,0.1,0c0,0,2,0.1,2.4,0.1c0.9,0,1,0,1.1-0.2c0.1-0.1,0.6-0.9,0.8-0.9
		c0.3,0,1.3,1,1.3,1.3c0,0.3-0.1,0.3-1.2,0.3H163c-0.5,0-0.7,0.2-0.7,0.8c0,1.3,0,7.2,0,8.4c0,0.5,0,1.6-1.2,2.1
		c-0.1,0-0.7,0.3-1.1,0.3c-0.3,0-0.4-0.1-0.6-0.5c-0.4-0.6-1.1-1-1.1-1c0,0-0.4-0.2-0.4-0.2c0,0,0.1-0.1,0.1-0.1
		c0.3,0,1.4,0.1,1.6,0.1c1,0,1.3,0,1.3-1c0-2.2,0-5.7,0-7.9c0-0.4,0-0.9-0.5-0.9c-0.1,0-0.7,0.1-0.8,0.1s-0.1,0-0.2-0.1L159.1,38.9z
		 M161.9,34.3c-0.6,0-1.2,0-1.8,0.1c-0.1,0-0.4,0-0.4,0c-0.1,0-0.1,0-0.2-0.1l-0.4-0.5c-0.1-0.1-0.1-0.1-0.1-0.1c0,0,0,0,0.1,0
		c0.3,0,1.7,0.1,2,0.1c0.3,0,0.7,0,0.8-0.2c0.1-0.1,0.7-0.9,0.8-0.9c0.3,0,1.3,1,1.3,1.3c0,0.1-0.1,0.2-0.3,0.2c-0.2,0-0.4,0-1,0
		H161.9z"/>
	<path class="st0" d="M167.8,43.1c0-0.6,0.6-1.3,2-3c0.9-1.1,1.8-2.8,1.8-3.1c0-0.1-0.1-0.1-0.2-0.1c-0.2,0-1.1,0.2-1.3,0.2
		c-0.8,0-1.9-1-1.9-1.8c0-0.1,0-0.1,0.1-0.1s0.7,0.3,0.8,0.4c0.3,0.1,0.8,0.4,1.4,0.4c1.7,0,1.7-0.6,1.7-1c0-0.1,0-0.5-0.2-0.7
		c-0.1-0.1-0.5-0.5-0.5-0.6c0-0.2,0.5-0.3,0.9-0.3c0.5,0,1,0.2,1.1,0.7c0,0.3,0.1,0.3,0.9,0.4c0.1,0,0.9,0.1,0.9,0.5
		c0,0.7-1.5,1.3-2.5,1.7c-0.3,0.1-0.3,0.2-0.8,1.2c-0.5,1.2-0.6,1.3-1.1,2.3c-0.1,0.2-0.1,0.3-0.1,0.3c0,0,0,0.1,0.1,0.1
		c0.1,0,0.5-0.1,0.7-0.2c0.2-0.1,0.5-0.2,0.8-0.2c0.3,0,1.2,0,1.8,1.3c0.1,0.4,0.2,0.4,0.2,0.4c0.1,0,0.8-1,0.9-1.1
		c0.7-1,2.1-2.9,3.9-2.9c1.2,0,2,1,2,1.9c0,1-1.7,1.7-3,2.2c-0.5,0.2-2.9,1.2-3.3,1.4c-0.3,0.2-0.4,0.4-0.4,0.9c0,0.2,0,1.1,0,1.3
		c0,0.3,0,1.5-0.8,1.5c-0.6,0-0.7-0.7-0.7-1.1c0-0.2,0.1-1.2,0.1-1.2c0-0.1,0-0.3-0.1-0.3c-0.2,0-2,1.3-2,2.5c0,1.4,2.1,1.4,2.7,1.4
		c0.5,0,0.9,0,1.3-0.1c0.3,0,1.6-0.4,1.9-0.4c0.4,0,1,0.2,1,0.7c0,1.3-3.3,1.4-3.8,1.4c-2.7,0-4.1-1.1-4.1-2.7c0-1.3,0.8-2,2.8-3.6
		c0.2-0.2,0.3-0.4,0.3-0.7c0-0.9-0.2-2.1-1-2.1c-0.8,0-2,1-2.6,2.2c-0.2,0.5-0.5,1-1.1,1C168.2,43.7,167.8,43.6,167.8,43.1z
		 M173.1,35.1c0,0,1.1-0.3,1.1-0.5c0-0.3-0.5-0.3-0.7-0.3c-0.3,0-0.4,0.6-0.4,0.7C173.1,35.1,173.1,35.1,173.1,35.1z M175.1,41.9
		c0,0,0,0.1,0.1,0.1c0.1,0,4.2-1.7,4.2-3.1c0-0.5-0.5-0.6-0.7-0.6C176.9,38.3,175.1,41.6,175.1,41.9z"/>
	<path class="st0" d="M194.7,35.2c0.2,0.3,0.3,0.3,1.2,0.4c2.6,0.4,4.5,2.2,4.5,5.2c0,3.7-2.8,5.9-5.7,6.1c-0.3,0-0.4,0-0.7,0.4
		c-0.5,0.5-1.3,1.4-2.7,2.1c-0.5,0.3-1.2,0.5-1.3,0.5c-0.1,0-0.1-0.1-0.1-0.1c0-0.1,0.5-0.4,0.6-0.5c1.4-0.9,2.4-2.2,2.4-2.5
		c0-0.2-0.8-0.7-0.9-0.8c-2.1-1.9-2.2-4.2-2.2-5.5c0-0.3,0.1-1.6,0.1-1.9c0-0.1,0-0.2-0.1-0.2c-0.4,0-2.5,2.8-2.5,4.8
		c0,0.3,0.3,1.6,0.3,1.9c0,0.5-0.4,1-0.9,1c-0.8,0-2.3-1.6-2.3-4.8c0-1,0.1-2,0.4-3.1c0.4-1.5,0.4-1.7,0.4-2c0-0.4-0.1-0.7-0.4-1.1
		c-0.2-0.2-0.3-0.3-0.3-0.4c0-0.2,0.5-0.4,0.7-0.4c0.8,0,1.7,1.2,1.7,1.7c0,0.3-0.3,0.7-0.4,1.1c-0.9,1.7-1.2,3.1-1.2,4.3
		c0,1.5,0.5,1.6,0.6,1.6c0.2,0,0.4-0.3,0.9-1.3c1.2-2.3,1.9-3.1,3.1-4.4c0.2-0.3,0.2-0.3,0.4-0.9c0.5-2.4,1.6-2.8,2.3-2.8
		C193.6,33.9,194.3,34.7,194.7,35.2z M194.6,39.8c0-0.5,0-1.6-0.4-2.7c-0.1-0.4-0.2-0.4-0.5-0.4c-0.5,0-2.1,0.4-3,1
		c-0.4,0.3-0.4,1.5-0.4,2c0,4.5,2.6,5.8,3.1,5.7C194.1,45.2,194.6,41.8,194.6,39.8z M190.9,36.5C190.9,36.5,190.9,36.6,190.9,36.5
		c0.1,0.1,0.4-0.1,0.5-0.1c0.3-0.1,0.8-0.3,1.6-0.6c0.5-0.2,0.6-0.2,0.6-0.3c0-0.1-0.3-1-1-1C191.3,34.5,190.9,36.4,190.9,36.5z
		 M195.2,45.3c0,0.1,0.1,0.2,0.2,0.2c0.7,0,3.4-1.1,3.4-5c0-0.7-0.1-2.9-1.7-3.7c-0.6-0.3-1.3-0.4-1.5-0.4c-0.1,0-0.2,0.1-0.2,0.2
		c0,0.1,0,0.1,0.1,0.4c0.1,0.4,0.4,1.3,0.4,3.1c0,2.3-0.5,4.1-0.8,5C195.2,45.2,195.2,45.3,195.2,45.3z"/>
	<path class="st0" d="M204.9,46.3c2.2-4.1,2.8-7.7,2.8-7.7c0-0.2-0.1-0.2-0.8-0.2c-0.4,0-1.2,0-1.9-0.4c-0.7-0.3-1.1-0.9-1.1-1.1
		c0-0.1,0.1-0.1,0.1-0.1c0.1,0,0.4,0.2,0.5,0.2c0.3,0.1,1.2,0.2,1.9,0.2c0.3,0,1.3,0,1.5-0.2c0.2-0.1,0.2-1.6,0.2-1.7
		c0-0.2,0-0.9-0.3-1.3c-0.1-0.1-0.6-0.6-0.6-0.8c0-0.2,0.4-0.5,0.9-0.5c0.9,0,1.7,0.9,1.7,1.1c0,0.1-0.2,0.5-0.2,0.6
		c0,0.4,1.7,0.8,1.9,0.8c0.1,0,0.5,0,0.7,0c0.2,0,0.7,0,0.7,0.6c0,1.2-1.8,1.8-3.2,2.2c-0.7,0.2-0.8,0.2-0.9,0.6
		c-1.1,4.6-1.1,4.6-1.5,6c-1.5,4.4-2.2,4.4-2.6,4.4c-0.5,0-0.6-0.7-0.6-0.9C204.2,47.7,204.3,47.5,204.9,46.3z M209.4,36.7
		c0.1,0,1.7-0.6,1.7-0.8c0-0.2-1.1-0.7-1.4-0.7c-0.1,0-0.2,0-0.2,0.3c-0.1,0.4-0.1,0.5-0.2,1C209.3,36.6,209.2,36.7,209.4,36.7z
		 M211,45.6c0.4,1.8,2.7,2.2,4.3,2.2c0.4,0,2-0.1,2.3-0.1c0.7,0,1.7,0.4,1.7,1c0,0.6-0.8,0.7-2.6,0.7c-3.4,0-6.2-0.9-6.2-3.5
		c0-0.5,0.1-0.9,0.3-0.9C210.8,45,210.9,45.5,211,45.6z M215.6,38.3c2,0,3.5,0.6,3.5,1.5c0,0.5-0.4,0.5-0.6,0.5
		c-0.2,0-1-0.1-1.2-0.1c-0.4,0-0.7,0-1.6,0.3c-0.5,0.2-0.7,0.3-0.9,0.3c0,0-0.1,0-0.1-0.1c0-0.1,1.1-0.9,1.1-1.2
		c0-0.3-1.5-0.3-1.8-0.3c-0.5,0-1,0-1.5,0.1c-0.1,0-0.6,0.1-0.7,0.1c0,0-0.2,0-0.2,0C211.5,39.2,213.4,38.3,215.6,38.3z"/>
	<path class="st0" d="M222.9,38.9c0-0.1,0.1-0.2,0.2-0.2c0.1,0,1.2,0.3,1.4,0.3c0.6,0,3.5-0.6,3.5-0.6c0.4-0.3,0.4-2.4,0.4-2.5
		c0-0.5,0-1.2-0.5-1.8c-0.3-0.4-0.4-0.4-0.4-0.5c0-0.1,0.3-0.2,0.3-0.2c1.4,0,2.2,0.8,2.2,1.3c0,0-0.8,2.7-0.8,3.1
		c0,0.1,0.1,0.2,0.2,0.2c0.1,0,1.1-0.1,1.2-0.1c1.6,0,2.8,0.8,2.8,2.7c0,1.7-0.6,5.3-1.8,6.7c-0.6,0.7-1.4,1.3-2.1,1.3
		c-0.8,0-1-0.8-1.2-1.4c0-0.1-0.3-0.6-0.3-0.7c0-0.1,0-0.1,0.1-0.1c0.1,0,0.5,0.1,0.5,0.1c0.4,0.1,0.8,0.1,1.1,0.1
		c0.6,0,1.4-0.3,2-2.6c0.2-0.8,0.7-2.5,0.7-3.6c0-1.5-0.8-1.6-1.5-1.6c-0.7,0-1.9,0.3-2,0.5c-0.1,0.1-0.1,0.2-0.3,0.9
		c-0.8,2.9-2.9,8-4.6,8c-0.5,0-0.7-0.3-0.7-0.7c0-0.4,0.1-0.6,1.4-2c0.6-0.6,1.5-1.6,2.6-4.7c0.1-0.2,0.3-0.8,0.3-1
		c0-0.1,0-0.2-0.1-0.2c-0.5,0-2.4,0.8-2.8,0.8C223.8,40.7,222.9,39.3,222.9,38.9z M237.5,43.2c-0.2,0-1.2-0.6-1.4-0.6
		c-0.1,0-0.7-0.1-0.7-0.1c0-0.1,0.7-0.5,0.8-0.6c0.8-0.6,0.9-0.6,0.9-1.2c0-0.4-0.1-1.7-1.7-2.4c-0.2-0.1-0.5-0.2-0.5-0.3
		c0-0.1,0.1-0.1,0.1-0.1c2.7,0,3.7,2.6,3.7,3.7C238.7,41.8,238.4,43.2,237.5,43.2z"/>
	<path class="st0" d="M244.1,44.6c0.4,0,0.5-0.3,1-1.6c0.1-0.4,0.2-0.5,0.3-0.5c0.1,0,0.1,0.2,0.1,0.3c0,0.2-0.5,2.7-0.5,3.2
		c0,0.4,0.3,1,0.3,1.1c0.1,0.3,0.3,0.6,0.3,0.9c0,0.4-0.3,0.7-0.7,0.7c-1.3,0-2.3-3.6-2.3-5.6c0-1.3,0.2-2,0.9-4.6
		c0.4-1.3,0.4-1.8,0.4-2.2c0-0.7-0.1-1.2-0.2-1.5c0-0.1-0.1-0.3-0.1-0.4s0.1-0.1,0.2-0.1c1,0,1.9,1.9,1.9,2.7c0,0.2,0,0.3-0.4,1
		c-0.2,0.4-1.6,3.5-1.6,5.4C243.6,44,243.8,44.6,244.1,44.6z M256.3,46.7c0,0.8-0.6,1.1-3.6,1.1c-2.1,0-2.8-0.5-3.3-0.9
		c-0.1-0.1-0.7-0.7-0.7-1c0,0,0-0.2,0.1-0.2c0.1,0,0.4,0.3,0.5,0.3c0.6,0.3,1.5,0.4,2.3,0.4c0.5,0,1.3,0,1.8-0.1
		c0.3,0,1.8-0.2,1.9-0.2C256.2,46,256.3,46.5,256.3,46.7z M255.3,36.5c0,1-2.3,1-2.6,1c-2.4,0-3.7-1.3-3.7-1.6c0,0,0-0.1,0.1-0.1
		c0.1,0,0.3,0.1,0.6,0.1c0.5,0.1,1.1,0.1,1.4,0.1c1,0,2-0.2,2.3-0.3c0.6-0.2,0.7-0.3,0.9-0.2C254.8,35.7,255.3,36,255.3,36.5z"/>
	<path class="st0" d="M260.3,41.5c0-0.7,0.6-1.3,1.3-1.3c0.7,0,1.3,0.6,1.3,1.3c0,0.7-0.6,1.3-1.3,1.3
		C260.9,42.8,260.3,42.2,260.3,41.5z M267.3,41.5c0-0.7,0.6-1.3,1.3-1.3c0.7,0,1.3,0.6,1.3,1.3c0,0.7-0.6,1.3-1.3,1.3
		S267.3,42.2,267.3,41.5z M274.4,41.5c0-0.7,0.6-1.3,1.3-1.3c0.7,0,1.3,0.6,1.3,1.3c0,0.7-0.6,1.3-1.3,1.3
		C274.9,42.8,274.4,42.2,274.4,41.5z"/>
</g>
</svg>
