<?xml version="1.0" encoding="utf-8"?>
<!-- Generator: Adobe Illustrator 24.0.3, SVG Export Plug-In . SVG Version: 6.00 Build 0)  -->
<svg version="1.1" id="レイヤー_1" xmlns="http://www.w3.org/2000/svg" xmlns:xlink="http://www.w3.org/1999/xlink" x="0px"
	 y="0px" viewBox="0 0 156 52" style="enable-background:new 0 0 156 52;" xml:space="preserve">
<style type="text/css">
	.st0{fill:#FFFFFF;stroke:#FFFFFF;stroke-width:0.156;stroke-linecap:round;stroke-linejoin:round;stroke-miterlimit:10;}
	.st1{fill:#50BEEB;stroke:#50BEEB;stroke-width:0.156;stroke-miterlimit:10;}
</style>
<g>
	<g>
		<path class="st0" d="M23.3,9.7H14c1.3,1,3.6,3.1,3.6,4.9c0,1.2-1.1,2-1.9,2c-1.1,0-1.3-0.7-1.6-2.7c-0.4-2.8-0.8-3.5-1.1-4.1H9.4
			c-4.1,5.9-7.3,8.1-9.1,9.3l-0.2-0.2c2.6-2.9,6-8,8-11.8c2.3-4.3,2.2-5.2,2.1-6.8l4.6,2.4c0.4,0.2,0.6,0.4,0.6,0.7
			c0,0.4-0.5,0.7-0.7,0.7c-0.3,0.1-1.5,0.6-1.8,0.7c-1.2,1.8-1.3,2-2.6,3.8h7.9l1.2-1.7c0.4-0.6,0.6-0.8,0.8-0.8
			c0.3,0,0.4,0.1,1.1,0.6l2.2,1.8c0.3,0.2,0.6,0.4,0.6,0.8C24.2,9.6,23.7,9.7,23.3,9.7z M45.5,34.6C43.6,43,43,45.4,36,46.9
			c-0.1-0.8-0.2-1.4-1.3-2.5c-0.4-0.4-1.3-1.3-2.8-2.6l0.1-0.3c2.3,0.6,3.9,0.8,5.5,0.8c1.6,0,2.9-0.3,3.8-3c0.4-1.3,0.9-4,1.1-5.8
			H25.1c0,3.2,0.1,6.3,0.2,10.9c0.1,1.5,0.2,4,0.2,5.5c0,1.6-2.1,2-2.4,2c-0.9,0-1.1-0.6-1.1-1.3c0-0.4,0.1-2.7,0.1-3.3
			c0.1-4.2,0.2-9.3,0.2-12.7c-4.4,5.5-11.1,11.2-21.3,15.5v-0.3c6-3.6,13.9-10.8,18.1-16.2H6.9C6.3,35.9,6,37,4.1,37
			c-0.6,0-1.2-0.2-1.2-1c0-0.4,0.2-1,0.7-2.2c0.5-1.3,0.9-2.9,1.4-4.5c0.2-0.7,1.2-4.4,1.2-6.6l3.7,2.1h12.5v-5.3h-8.3
			c-1.7,0-4.8,0.2-7.1,0.6l-1.3-2.4c2.9,0.2,6.3,0.4,9.2,0.4h22.8l1.2-1.4c0.1-0.1,0.3-0.3,0.5-0.3c0.2,0,0.4,0.2,0.7,0.4l2.3,1.6
			c0.2,0.2,0.5,0.4,0.5,0.7c0,0.6-0.6,1-2,1.6c0.1,0.8,0.3,4.9,0.3,5c0,1.2-0.9,2.2-2.2,2.2c-1.2,0-1.1-1-1-1.8h-13v6.1h17l1.4-1.7
			c0.2-0.3,0.4-0.5,0.7-0.5s0.6,0.3,0.9,0.5l2.4,2.1c0.2,0.2,0.3,0.3,0.3,0.6C47.7,33.7,47.2,34,45.5,34.6z M8.9,26.1
			c-0.1,0.3-0.5,1.9-0.6,2.2c-0.7,2.4-0.7,2.6-1.1,3.9h15.1c0.1-1,0.1-5.3,0.1-6.1H8.9z M47.6,10.2H32c3,1.5,3.3,1.7,4.1,2.5
			c0.6,0.6,0.9,1.3,0.9,2.1c0,1.3-1.1,1.7-1.7,1.7c-1.2,0-1.3-0.6-2.1-2.9c-0.1-0.4-0.7-2-1.9-3.4H28c-1.7,2.5-3.7,4.8-6,6.6
			l-0.2-0.2c1.5-2.1,6.8-10.8,6.8-15.5c0-0.3-0.1-0.7-0.1-0.9l4.8,2.1c0.4,0.2,0.6,0.4,0.6,0.7c0,0.4-0.4,0.6-0.7,0.8
			c-0.5,0.2-1.3,0.6-1.9,0.8c-0.6,1.1-1.2,2.4-2.4,4.3h12.9l1.5-2.2c0.3-0.4,0.4-0.7,0.8-0.7c0.2,0,0.4-0.1,1.1,0.6l2.7,2.3
			c0.3,0.3,0.6,0.5,0.6,0.9C48.5,10.2,48,10.2,47.6,10.2z M38.1,19.4h-13c0,0.6-0.1,4.5-0.1,5.3h13V19.4z"/>
	</g>
	<g>
		<path class="st0" d="M121.2,5.3c0.1,1.5,0.3,8.3,0.3,9.6c0,1.1-1.1,2-2.2,2c-0.9,0-0.9-0.6-0.8-1.6h-7.8c-0.1,1.1-0.3,5.1-0.4,6.4
			c0,0.4-0.2,2.8-0.2,4.2h7.3l1.1-1.1c0.4-0.4,0.7-0.7,0.9-0.7s0.5,0.2,0.7,0.3L122,26c0.3,0.2,0.6,0.5,0.6,0.8
			c0,0.4-0.3,0.7-1.8,1.5c-0.1,5.7-0.8,15.1-2.6,18.2c-1.8,3.1-3.7,3.6-7,4.6c-0.1-1.2-0.2-2.7-4.1-4.9l0.1-0.3
			c1.1,0.2,2.7,0.4,5.7,0.4c1.8,0,3.1,0,4-5.9c0.7-3.9,1-9.6,1.1-13H110c-0.1,0.7-0.2,3.6-0.4,4c-0.3,0.6-1.3,1.3-2.3,1.3
			c-0.4,0-0.9-0.1-0.9-0.8c0-0.6,0.6-5.5,0.7-6.6c0.2-2.7,0.5-6.6,0.5-9.7c0-1.6-0.1-2.1-0.2-3.1L111,14h7.5V4.2h-5.3
			c-1.8,0-4.9,0.2-7.2,0.7l-1.3-2.4c3.1,0.2,6.2,0.4,9.3,0.4h4.4l0.8-1c0.1-0.2,0.4-0.6,0.7-0.6c0.2,0,0.4,0.2,0.6,0.3l2,1.7
			c0.2,0.2,0.5,0.4,0.5,0.7C123,4.4,122,5,121.2,5.3z M155,39.5h-14.8c0.1,2.9,0.1,3.5,0.1,6.6c0,0.6,0.1,3.3,0.1,3.8
			c0,1.1-1.3,1.9-2.2,1.9c-0.6,0-1.2-0.2-1.2-1c0-1.6,0.2-4.1,0.2-5.8c0.1-1.8,0.1-3.7,0.2-5.5h-6.7c-1.7,0-4.9,0.2-7.1,0.6
			l-1.3-2.4c3.1,0.3,6.2,0.4,9.2,0.4h6V32h-7.7c-0.1,2-1.8,2.3-2.3,2.3c-1,0-1-0.6-1-0.9c0-1.3,0.2-3.5,0.3-4.8
			c0.1-2.1,0.2-4.9,0.2-7.4c0-2.2,0-5.4-0.4-7.3l3.6,1.7h17.3l1.3-1.3c0.3-0.3,0.6-0.7,0.9-0.7s0.6,0.2,0.9,0.5l1.6,1.3
			c0.4,0.4,0.8,0.7,0.8,1.1c0,0.4-0.3,0.7-1.9,1.8c0.1,1.1,0.1,5.5,0.2,6.4c0,0.7,0.3,7,0.3,7.1c0,1.4-1.2,2.1-2.1,2.1
			c-1.2,0-1.1-0.4-1.1-1.9h-8l0.1,6.2h9.7l1.7-1.8c0.2-0.2,0.6-0.7,0.9-0.7c0.3,0,0.6,0.2,0.9,0.6l1.9,1.8c0.4,0.3,0.6,0.6,0.6,0.9
			C155.9,39.3,155.5,39.5,155,39.5z M130.9,12c-1.5,0-1.6-1.1-1.9-3.3c-0.4-2.7-0.8-3.8-1.9-5.7l0.3-0.2c3.3,1.8,5.5,5,5.5,7
			C132.8,11.2,131.9,12,130.9,12z M137.3,16.9h-7.5v6.3h7.5V16.9z M137.4,24.5h-7.6v6.1h7.7C137.4,29,137.4,26,137.4,24.5z
			 M139.4,10.9c-1.6,0-1.7-0.8-2.1-4c-0.4-2.7-1.1-4.1-1.4-4.9l0.3-0.2c1.6,0.9,5,4,5,7.3C141.2,10.3,140.4,10.9,139.4,10.9z
			 M148.3,16.9h-8.1v6.3h8.1V16.9z M148.3,24.5h-8.1v6.1h8.1V24.5z M153.5,4.5c-0.5,0.2-1.2,0.6-1.8,0.7c-2.9,4.1-3.6,5-7,8.6
			l-0.2-0.2c1.8-3.3,2.8-5.8,3.2-6.7c1.5-3.6,1.6-4.7,1.7-6.2l4.3,2.2c0.4,0.2,0.6,0.4,0.6,0.8C154.1,4.1,153.8,4.4,153.5,4.5z"/>
	</g>
	<g>
		<path class="st1" d="M83.2,34.8v6.3c0,2.8,2.2,4.3,5,4.3h1.1v1.9H72.6v-1.9c1.5,0,6.2,0,6.2-4.4v-6.2H58.7v-2.1L81.2,2.3h2v30.6
			h8.5v1.9H83.2z M78.7,9.4L61.4,32.9h17.3V9.4z"/>
	</g>
</g>
</svg>
