<?xml version="1.0" encoding="utf-8"?>
<!-- Generator: Adobe Illustrator 24.0.3, SVG Export Plug-In . SVG Version: 6.00 Build 0)  -->
<svg version="1.1" id="レイヤー_1" xmlns="http://www.w3.org/2000/svg" xmlns:xlink="http://www.w3.org/1999/xlink" x="0px"
	 y="0px" viewBox="0 0 120 120" style="enable-background:new 0 0 120 120;" xml:space="preserve">
<style type="text/css">
	.st0{fill:#50BDEA;}
	.st1{fill:#FFFFFF;}
</style>
<g>
	<polygon class="st0" points="120,120 0,0 120,0 	"/>
	<g>
		<g>
			<path class="st1" d="M64.5,25.5l-2.8,2.8c-0.7,0.7-0.6,1.6,0.7,2.9c1.3,1.3,2.6,2.4,3.9,3.5L65,35.9c-1.2-1-2.6-2.3-3.9-3.7
				c-2.1-2.1-2.1-3.6-0.9-4.7l3.2-3.2l-2.8-2.8c-0.4-0.4-1-0.9-1.4-1.3l1.2-1.2c0.4,0.4,0.9,1,1.3,1.4l2.8,2.8l3-3l-1.9-1.9
				c-0.5-0.5-0.9-0.9-1.3-1.2l1.1-1.1c0.4,0.4,0.7,0.8,1.2,1.3l6.7,6.7c0.5,0.5,0.9,0.8,1.2,1.1l-1.1,1.1c-0.3-0.4-0.6-0.7-1.1-1.2
				l-3.7-3.7l-3,3l4.8,4.8c0.3,0.3,0.9,0.8,1.2,1.1l-1.2,1.2c-0.3-0.4-0.8-0.9-1.1-1.2L64.5,25.5z"/>
			<path class="st1" d="M86,43c0.3,0.3,0.8,0.7,1.2,1L86,45.2c-0.3-0.3-0.7-0.8-1.1-1.1l-3.7-3.7c-1.6,1.5-3.2,2.7-4.8,3.2
				c-1.5,0.4-3.6,0.4-5.4-0.2l-0.3-1.8c1.6,0.7,3.4,0.8,4.8,0.5c1.6-0.4,3-1.5,4.4-2.9l-4-4c-0.4-0.4-0.8-0.8-1.3-1.2l1.2-1.2
				c0.4,0.4,0.7,0.9,1.2,1.3L86,43z M81,33.3c-0.5-0.5-0.9-0.9-1.3-1.2l1.2-1.2c0.4,0.4,0.7,0.9,1.2,1.4l4.8,4.8
				c0.4,0.4,0.9,0.9,1.4,1.2l-1.2,1.2c-0.4-0.4-0.9-0.9-1.3-1.4L81,33.3z M88.3,40.7c0.3-0.9,0.7-2.2,0.8-3.1l1.1,0.4
				c-0.1,0.8-0.5,2.2-0.8,3.1L88.3,40.7z M92.3,39c-0.1,0.9-0.5,2.3-0.7,3.1l-1.1-0.4c0.3-0.9,0.7-2.2,0.8-3.1L92.3,39z"/>
			<path class="st1" d="M83.8,53.8c2.1,0.4,4-0.1,5.8-1c1.7-0.9,4.4-3.5,6-5.1c0.4-0.4,0.7-0.8,0.9-1.1l1.3,1.3
				c-0.2,0.2-0.7,0.5-1.1,0.9c-1.6,1.6-4.5,4.4-6.3,5.4c-1.9,1.1-4.2,1.6-6.4,1.4L83.8,53.8z M90.1,60.3c0.3-0.2,0.6-0.4,0.9-0.7
				l8.3-8.3c0.5-0.5,0.9-1,1-1.1l1.3,1.3c-0.1,0.1-0.6,0.5-1.1,1l-8,8c1.9,0.7,4.9,1.2,7.6,0.7l-0.3,1.6c-2.9,0.4-6.3-0.1-8.7-0.9
				c-0.3-0.1-0.6-0.1-0.8-0.2L90.1,60.3z"/>
		</g>
	</g>
</g>
</svg>
