<?xml version="1.0" encoding="utf-8"?>
<!-- Generator: Adobe Illustrator 24.0.3, SVG Export Plug-In . SVG Version: 6.00 Build 0)  -->
<svg version="1.1" id="レイヤー_1" xmlns="http://www.w3.org/2000/svg" xmlns:xlink="http://www.w3.org/1999/xlink" x="0px"
	 y="0px" viewBox="0 0 138 58" style="enable-background:new 0 0 138 58;" xml:space="preserve">
<style type="text/css">
	.st0{fill:#D61518;}
	.st1{fill:#0A1A4C;}
	.st2{opacity:0.9;}
</style>
<g>
	<g>
		<g>
			<path class="st0" d="M17.82,17.7c0,1.92-1.55,3.47-3.46,3.47c-1.91,0-3.46-1.56-3.46-3.47c0-1.92,1.55-3.47,3.46-3.47
				C16.27,14.23,17.82,15.78,17.82,17.7"/>
			<path class="st1" d="M22.78,21.19c-0.25,0-0.95-0.06-1.97-0.61c-0.19-0.1-0.27-0.11-0.36-0.11c-0.45,0-0.57,0.34-0.7,0.72h-0.49
				v-3.4h0.49c0.21,0.61,0.49,1.46,1.42,2.21c0.51,0.4,1.04,0.67,1.61,0.67c0.7,0,1.33-0.46,1.33-1.29s-0.64-1.16-2.22-1.65
				c-0.93-0.3-2.63-0.87-2.63-2.78c0-1.5,1.14-2.66,2.52-2.66c0.7,0,1.33,0.29,1.74,0.5c0.13,0.06,0.21,0.09,0.34,0.09
				c0.25,0,0.38-0.13,0.57-0.59h0.49v2.95h-0.49c-0.19-0.59-0.38-1.25-1.14-1.88c-0.51-0.44-1.08-0.53-1.48-0.53
				c-0.83,0-1.42,0.46-1.42,1.16c0,0.68,0.55,1.05,2.29,1.6c1.04,0.34,2.63,0.93,2.63,2.8C25.32,20.01,24.09,21.19,22.78,21.19"/>
			<path class="st1" d="M30,21.19c-1.21,0-2.08-0.8-2.08-2.38v-5.88h-1.44v-0.49c0.57-0.06,1.25-0.15,2.07-1.26
				c0.63-0.88,0.74-1.6,0.83-2.13h0.64v3.39h2.2v0.49h-2.2v6.29c0,0.59,0.34,0.93,0.76,0.93c0.15,0,0.8-0.15,1.1-1.65h0.49
				C32.13,19.63,31.78,21.19,30,21.19"/>
			<path class="st1" d="M0.88,21v-0.88h1.57c0.98,0,1.69-0.77,1.69-1.67V4.17c0-0.99-0.57-1.53-1.53-1.53H0.67V1.74
				c1.07-0.03,3.61-0.4,5.46-1.14C6.27,0.54,6.93,0,7.09,0c0.16,0,0.22,0.14,0.22,0.33v18.12c0,0.9,0.57,1.67,1.67,1.67h1.47V21
				H0.88z"/>
		</g>
	</g>
	<g>
		<path class="st1" d="M19.94,57.76H0c2.43-4.74,18.71-35.29,55.6-44.69c40.43-10.3,71.5,13.47,75.07,16.3
			c-3.54-2.08-39.23-22.28-75.77-5.06c-9.95,4.69-17.5,11-23.1,17.07C25.84,48.07,21.7,54.93,19.94,57.76z"/>
	</g>
	<g class="st2">
		<path class="st1" d="M38.32,41.01c-0.49,0-1.1,0.04-1.53,0.13v-2.21c0.47,0.09,0.91,0.13,1.49,0.13h7.87
			c0.67,0,1.13-0.04,1.49-0.13v2.21c-0.42-0.09-0.97-0.13-1.47-0.13h-2.7c-0.29,1.06-0.42,1.44-0.82,2.48v11.86
			c0,1,0.02,1.77,0.09,2.61H41.4c0.05-0.77,0.09-1.73,0.09-2.63v-7.15c0-0.89,0-1.39,0.02-2.23c-0.44,1.04-1.04,2.19-1.81,3.39
			c-0.65,1-1.33,1.88-2.44,3.14c-0.17-0.66-0.35-1.13-0.73-1.88c1.56-1.53,2.68-3.03,3.8-5.13c0.82-1.57,1.26-2.63,1.81-4.45H38.32z
			 M43.73,44.32c0.63,1.37,1.09,2.21,1.81,3.25c0.87,1.28,1.58,2.08,2.46,2.81c-0.29,0.62-0.47,1.13-0.72,1.99
			c-1.83-1.88-3.15-3.92-4.32-6.62L43.73,44.32z"/>
		<path class="st1" d="M51.59,40.28c-0.87,0.15-1.24,0.2-2.13,0.31c-0.1-0.55-0.17-0.82-0.39-1.5c2.19-0.04,4.37-0.6,5.2-1.33
			l0.63,1.5c-0.12,0.04-0.12,0.04-0.62,0.22c-0.79,0.31-1.14,0.42-1.71,0.58v1.46h1.35c0.56,0,0.86-0.02,1.1-0.11v1.73
			c-0.21-0.07-0.35-0.09-0.91-0.09h-1.54v1.15h1.24c0.51,0,0.74-0.02,1.03-0.07c-0.02,0.44-0.04,0.82-0.04,1.95v2.81
			c0.01,1.11,0.02,1.79,0.02,2.04c-0.35-0.04-0.53-0.04-1.09-0.04h-1.16v1.2h1.14c0.61,0,0.85-0.02,1.12-0.09v1.75
			c-0.23-0.07-0.4-0.09-0.9-0.09h-1.36v1.26c0.68-0.11,1.1-0.22,2.22-0.51v1.19c0.56-1.39,1.01-3.23,1.25-5.2
			c0.22-1.73,0.29-2.99,0.38-6.09h-0.13c-0.46,0-0.72,0.02-1.06,0.09v-2.01c0.25,0.07,0.51,0.09,0.95,0.09h0.28
			c0.01-0.71,0.01-1.22,0.01-1.93c0-1.66-0.01-2.01-0.09-2.63h1.2c-0.07,0.58-0.07,0.58-0.1,4.56h1.1c0.5,0,0.79-0.02,1.12-0.09
			c-0.04,0.69-0.04,0.84-0.09,4.07c-0.07,5.71-0.23,8.76-0.55,10c-0.21,0.82-0.58,1.13-1.36,1.13c-0.26,0-0.78-0.07-1.09-0.11
			c-0.02-0.77-0.08-1.28-0.22-2.04c0.59,0.2,0.87,0.27,1.14,0.27c0.41,0,0.55-0.13,0.64-0.62c0.15-0.71,0.27-2.52,0.34-5.07
			c0.05-1.81,0.06-2.46,0.09-5.71h-1.15c-0.07,3.21-0.22,5.36-0.47,7.19c-0.35,2.52-0.81,4.25-1.75,6.44
			c-0.23-0.4-0.65-0.91-1.02-1.22c0.17-0.31,0.23-0.42,0.35-0.66c-1.78,0.51-1.99,0.55-4.84,1.04c-0.3,0.04-0.44,0.09-0.69,0.18
			l-0.19-2.04c0.24,0.04,0.36,0.04,0.56,0.04c0.47,0,1.26-0.07,2.18-0.2v-1.44h-1.27c-0.38,0-0.81,0.04-1.13,0.09v-1.77
			c0.3,0.09,0.61,0.11,1.13,0.11h1.27v-1.2H50.5c-0.51,0-0.8,0.02-1.15,0.07c0.02-0.51,0.04-1,0.04-2.08v-2.74
			c0-1.06-0.01-1.42-0.04-1.99c0.33,0.04,0.65,0.07,1.16,0.07h1.08v-1.15h-1.54c-0.52,0-0.78,0.02-1.12,0.11V41.4
			c0.33,0.09,0.63,0.11,1.12,0.11h1.54V40.28z M50.35,45.63v1.17h1.25v-1.17H50.35z M50.35,48.2v1.24h1.25V48.2H50.35z M52.58,46.8
			h1.29v-1.17h-1.29V46.8z M52.58,49.44h1.29V48.2h-1.29V49.44z"/>
		<path class="st1" d="M64.78,49.1c-0.42,1.48-0.69,2.19-1.27,3.34c-0.27-0.64-0.44-0.97-0.73-1.39c-0.23,3.25-0.53,5-1.2,6.84
			c-0.28-0.86-0.44-1.19-0.82-1.75c0.44-1.26,0.59-1.95,0.76-3.21c0.22-1.62,0.35-4.12,0.35-6.44c0-1.22-0.02-2.57-0.05-3.21
			c0.46,0.09,0.81,0.11,1.38,0.11h1.32c-0.12-0.66-0.35-1.7-0.51-2.21h-1.06c-0.59,0-0.85,0.02-1.21,0.09V39.3
			c0.32,0.09,0.67,0.13,1.27,0.13h3.07V39.1c0-0.49-0.02-0.93-0.07-1.44h1.27c-0.05,0.49-0.07,0.91-0.07,1.44v0.33h3.08
			c0.63,0,0.99-0.04,1.33-0.13v1.97c-0.36-0.07-0.69-0.09-1.27-0.09h-0.98c-0.28,1.11-0.38,1.46-0.61,2.21h1.67
			c0.67,0,1.04-0.02,1.38-0.11v1.92c-0.4-0.09-0.73-0.11-1.38-0.11h-7.52c0,2.81-0.02,4.09-0.13,5.82c0.51-0.91,0.78-1.5,1.08-2.5
			c0.24-0.82,0.47-1.9,0.62-2.92l1.03,0.42c-0.12,0.58-0.12,0.58-0.32,1.46h1.58v-0.11c0-0.77-0.02-1.19-0.06-1.62h1.16
			c-0.04,0.51-0.05,0.91-0.05,1.59v0.13h2.28c0.58,0,0.89-0.02,1.18-0.11v1.93c-0.34-0.07-0.64-0.09-1.19-0.09h-2.27v2.15h1.89
			c0.56,0,0.82-0.02,1.1-0.09v1.88c-0.34-0.07-0.59-0.09-1.1-0.09h-1.89v2.54h2.9c0.5,0,0.86-0.04,1.14-0.11v2.01
			c-0.35-0.09-0.7-0.13-1.16-0.13h-6.8c-0.42,0-0.76,0.04-1.15,0.11v-1.99c0.29,0.09,0.63,0.11,1.13,0.11h2.9v-2.54h-1.44
			c-0.44,0-0.76,0.02-1.12,0.09v-1.88c0.29,0.07,0.56,0.09,1.12,0.09h1.44V49.1H64.78z M67.64,43.4c0.24-0.77,0.39-1.35,0.57-2.21
			h-3.04c0.22,0.84,0.34,1.37,0.48,2.21H67.64z"/>
		<path class="st1" d="M72.92,47.82c0.32-1.97,0.42-3.39,0.45-5.84l0.85,0.35c-0.04,2.35-0.17,4.27-0.45,6.13L72.92,47.82z
			 M75.62,55.34c0,1.06,0.02,1.86,0.07,2.66h-1.21c0.06-0.73,0.08-1.7,0.08-2.7V39.99c0-0.93-0.02-1.53-0.08-2.3h1.21
			c-0.05,0.77-0.07,1.35-0.07,2.3v1.81l0.72-0.53c0.28,1.02,0.35,1.37,0.61,2.9l-0.78,0.64c-0.15-1.15-0.3-1.99-0.55-2.92V55.34z
			 M77.93,40.85c-0.59,0-0.86,0.02-1.18,0.11v-1.81c0.34,0.11,0.61,0.13,1.22,0.13h1.62c0-0.71-0.01-1.04-0.07-1.57h1.18
			c-0.06,0.53-0.07,0.86-0.07,1.57h2.01c0.62,0,0.89-0.02,1.22-0.13v1.81c-0.33-0.09-0.65-0.11-1.21-0.11h-2.03v1.11h1.78
			c0.52,0,0.73-0.02,1.04-0.09v1.68c-0.3-0.07-0.58-0.09-1.07-0.09h-1.76v1.19h2.24c0.57,0,0.9-0.02,1.21-0.13v1.88
			c-0.39-0.09-0.73-0.13-1.21-0.13h-5.15c-0.58,0-0.9,0.02-1.22,0.13v-1.88c0.3,0.11,0.59,0.13,1.22,0.13h1.88v-1.19H78.2
			c-0.48,0-0.72,0.02-1.07,0.09v-1.68c0.34,0.07,0.57,0.09,1.07,0.09h1.41v-1.11H77.93z M78.2,55.5c0,1.13,0.02,1.86,0.07,2.48
			h-1.19c0.05-0.64,0.06-1.22,0.06-2.48v-6.28c0-0.93-0.01-1.31-0.04-1.9c0.29,0.04,0.58,0.07,1.03,0.07h4.05
			c0.56,0,0.85-0.02,1.1-0.09c-0.04,0.55-0.05,1.19-0.05,2.32v6.22c0,1.57-0.29,1.97-1.39,1.97c-0.25,0-0.62-0.02-1.14-0.09
			c-0.07-0.82-0.11-1.17-0.25-1.84c0.53,0.15,0.93,0.22,1.24,0.22c0.41,0,0.48-0.09,0.48-0.55v-1.08H78.2V55.5z M82.18,50.19v-1.26
			H78.2v1.26H82.18z M82.18,52.91v-1.19H78.2v1.19H82.18z"/>
		<path class="st1" d="M89.65,43.73c0.5,0,0.7-0.02,1.02-0.11v1.97c-0.24-0.07-0.38-0.07-0.69-0.09c-0.22,1.46-0.33,2.06-0.51,2.83
			h0.18c0.55,0,0.74-0.02,1.02-0.11v1.97c-0.3-0.07-0.56-0.09-1.02-0.09h-1.07v2.06h0.95c0.45,0,0.67-0.02,0.96-0.09v1.95
			c-0.32-0.07-0.53-0.09-0.96-0.09h-0.95v1.88c0,0.77,0.02,1.44,0.06,2.19h-1.14c0.05-0.8,0.07-1.35,0.07-2.19v-1.88h-1.02
			c-0.45,0-0.63,0.02-0.97,0.09v-1.95c0.29,0.07,0.52,0.09,0.97,0.09h1.02V50.1h-1.22c-0.44,0-0.69,0.02-1.02,0.09v-1.97
			c0.29,0.09,0.5,0.11,1.02,0.11h0.28c-0.11-1.13-0.19-1.7-0.4-2.83c-0.44,0-0.62,0.02-0.9,0.09v-1.97c0.3,0.09,0.55,0.11,1.02,0.11
			h1.22v-1.97h-0.95c-0.41,0-0.65,0.02-0.96,0.09V39.9c0.29,0.07,0.5,0.09,0.96,0.09h0.95v-0.51c0-0.64-0.02-1.37-0.06-1.77h1.13
			c-0.05,0.6-0.06,1.06-0.06,1.77v0.51h0.81c0.47,0,0.68-0.02,0.97-0.09v1.95c-0.3-0.07-0.53-0.09-0.97-0.09h-0.81v1.97H89.65z
			 M88.5,48.33c0.22-0.91,0.36-1.73,0.5-2.83h-1.82c0.18,1.04,0.29,1.79,0.4,2.83H88.5z M95.98,46.52
			c-0.06,0.29-0.09,0.42-0.15,0.97c-0.27,2.1-0.67,4.14-1.12,5.62c0.57,1.22,0.97,1.84,1.82,2.83c-0.28,0.71-0.44,1.17-0.61,1.9
			c-0.74-1.02-1.25-1.9-1.77-3.03c-0.44,1.13-0.87,1.99-1.5,3.01c-0.22-0.69-0.36-1.04-0.68-1.7c0.01,0.71,0.02,1.15,0.09,1.88
			h-1.18c0.07-0.89,0.09-1.42,0.09-2.46V40.67c0-0.75-0.02-1.55-0.06-2.17c0.32,0.09,0.68,0.11,1.14,0.11h2.91
			c0.51,0,0.86-0.02,1.08-0.09c-0.04,0.55-0.04,0.62-0.07,1.26c-0.16,3.98-0.32,4.45-1.55,4.45c-0.25,0-0.59-0.04-1.14-0.13
			c-0.04-0.71-0.08-1.11-0.22-1.77c0.53,0.18,1.03,0.27,1.31,0.27c0.44,0,0.47-0.18,0.55-2.26h-2.93v5.2h2.36
			c0.55,0,0.85-0.02,1.08-0.09L95.98,46.52z M91.98,56.1c0.73-1.04,1.09-1.75,1.54-2.9c-0.59-1.68-0.9-3.1-1.27-5.91h-0.27v8.28
			V56.1z M93.17,47.29c0.24,1.81,0.47,2.88,0.91,4.2c0.35-1.31,0.55-2.37,0.76-4.2H93.17z"/>
		<path class="st1" d="M100.01,41.01c0-1.24-0.01-1.46-0.06-2.19h1.41c-0.06,0.73-0.07,1.15-0.07,2.19v2.83l4.62-1.06
			c0.41-0.09,0.59-0.18,0.84-0.35l0.78,1.24c-0.13,0.33-0.15,0.35-0.32,1.02c-0.72,2.66-1.54,4.4-2.95,6.26
			c-0.4-0.8-0.55-1.02-1.02-1.48c0.91-0.95,1.7-2.21,2.21-3.58c0.17-0.42,0.21-0.53,0.38-1.11c-0.3,0.11-0.3,0.11-0.64,0.2
			l-3.9,0.95v5.02c0,1.97,0.04,2.39,0.28,2.74c0.22,0.35,0.69,0.49,1.62,0.49c1.32,0,2.64-0.31,3.63-0.84l0.06,2.5
			c-0.33,0.02-0.42,0.04-0.73,0.11c-1.35,0.27-2.13,0.38-2.96,0.38c-1.59,0-2.3-0.31-2.73-1.15c-0.36-0.75-0.44-1.37-0.44-3.85
			v-5.13l-1.15,0.29c-0.93,0.24-0.96,0.24-1.39,0.44l-0.15-2.37c0.11,0.02,0.19,0.02,0.24,0.02c0.27,0,0.67-0.07,1.18-0.18
			l1.27-0.31V41.01z"/>
		<path class="st1" d="M109.02,53.88c0.98-0.07,2.45-0.75,3.56-1.66c1.52-1.22,2.66-2.9,3.61-5.38c0.55-1.46,0.9-2.66,1.27-4.47
			c0.4,0.91,0.56,1.17,1.06,1.81c-1.01,4.01-2.15,6.57-3.78,8.59c-1.22,1.53-2.73,2.61-4.58,3.32c-0.46,0.18-0.51,0.2-0.76,0.35
			L109.02,53.88z M109.94,40.16c1.38,1.57,2.15,2.63,3.06,4.23l-0.87,1.97c-0.93-1.81-1.92-3.25-3.02-4.43L109.94,40.16z"/>
		<path class="st1" d="M124.75,38.44c-0.13,0.4-0.13,0.4-0.39,1.35c-0.16,0.6-0.24,0.89-0.33,1.11c0.07,0,0.24-0.02,0.5-0.04
			l2.89-0.07c0.41,0,0.65-0.07,0.92-0.22l0.7,1.28c-0.15,0.35-0.17,0.49-0.36,1.46c-0.41,2.04-1.05,4.56-1.59,6.11
			c-1.22,3.56-2.89,6.09-5.46,8.25c-0.32-0.97-0.45-1.31-0.84-1.93c1.04-0.75,1.66-1.35,2.43-2.28c0.89-1.08,1.42-1.92,2.02-3.25
			c-0.86-1.37-1.65-2.41-2.58-3.34l0.79-1.62c1.02,1.06,1.59,1.77,2.53,3.16c0.61-1.73,1.1-3.61,1.47-5.62l-3.94,0.07
			c-0.85,2.37-1.67,4.07-2.85,5.84c-0.34-0.69-0.48-0.91-1.02-1.48c1.31-1.77,2.3-3.81,3.07-6.33c0.36-1.19,0.61-2.23,0.7-3.03
			L124.75,38.44z"/>
		<path class="st1" d="M130.55,46.47c0.33,0.11,0.71,0.15,1.36,0.15h4.78c0.76,0,0.97-0.02,1.32-0.13v2.57
			c-0.39-0.09-0.67-0.11-1.32-0.11h-4.76c-0.74,0-1.01,0.02-1.37,0.11V46.47z"/>
	</g>
</g>
</svg>
