<?xml version="1.0" encoding="utf-8"?>
<!-- Generator: Adobe Illustrator 24.0.3, SVG Export Plug-In . SVG Version: 6.00 Build 0)  -->
<svg version="1.1" id="レイヤー_1" xmlns="http://www.w3.org/2000/svg" xmlns:xlink="http://www.w3.org/1999/xlink" x="0px"
	 y="0px" viewBox="0 0 139 60" style="enable-background:new 0 0 139 60;" xml:space="preserve">
<style type="text/css">
	.st0{fill:#0A1A4C;}
	.st1{fill:#D61518;}
</style>
<g>
	<g>
		<g>
			<path class="st0" d="M101.72,47.99v1.55h-6.71v-1.55H101.72z"/>
		</g>
		<g>
			<g>
				<g>
					<g>
						<path class="st0" d="M0.75,58.39h20.05c1.9-3.46,5.37-9.24,10.87-15.38V24.52C11.95,37.26,2.55,54.88,0.75,58.39z"/>
						<path class="st0" d="M56.43,13.73c-4.19,1.07-8.12,2.41-11.79,3.95v13.75c3.31-2.34,7-4.54,11.09-6.46
							c36.59-17.21,72.32,2.97,75.87,5.06C128.02,27.19,96.9,3.43,56.43,13.73z"/>
						<path class="st0" d="M47.74,56.38l-3.3-0.27c-3.22-0.27-3.38-1.82-3.38-8.85V34.11V19.28v-7.42c0-5.2,0.16-9.76,0.31-11.4
							C41.22,0.18,40.91,0,40.59,0c-2.04,1.55-6.36,3.92-12.96,5.29c-0.63,0.36-0.55,1.64,0.08,2.01l3.77,0.37
							c3.53,0.36,3.77,2.37,3.77,8.58v6.1v16.93v8c0,7.02-0.08,8.58-3.38,8.85l-3.22,0.27c-0.47,0.55-0.39,2.01,0.16,2.28
							c3.06-0.18,6.6-0.27,9.42-0.27c2.75,0,6.28,0.09,9.35,0.27C48.13,58.39,48.21,56.93,47.74,56.38z"/>
					</g>
					<ellipse transform="matrix(1 -1.038939e-03 1.038939e-03 1 -0.054 0.058)" class="st1" cx="55.8" cy="52" rx="7.99" ry="8"/>
					<g>
						<path class="st0" d="M73.33,59.94c-0.47,0-1.82-0.13-3.79-1.36c-0.36-0.21-0.51-0.25-0.69-0.25c-0.88,0-1.09,0.76-1.35,1.61
							h-0.95v-7.58h0.95c0.4,1.36,0.95,3.26,2.73,4.91c0.98,0.89,2.01,1.48,3.1,1.48c1.35,0,2.55-1.02,2.55-2.88
							c0-1.86-1.24-2.58-4.27-3.69c-1.79-0.68-5.07-1.95-5.07-6.18c0-3.35,2.19-5.93,4.85-5.93c1.35,0,2.55,0.64,3.35,1.1
							c0.26,0.13,0.4,0.21,0.66,0.21c0.47,0,0.73-0.3,1.09-1.31h0.95v6.57H76.5c-0.36-1.31-0.73-2.8-2.19-4.19
							c-0.98-0.97-2.08-1.19-2.84-1.19c-1.6,0-2.73,1.02-2.73,2.58c0,1.52,1.06,2.33,4.41,3.56c2.01,0.76,5.07,2.08,5.07,6.23
							C78.22,57.32,75.85,59.94,73.33,59.94z"/>
						<path class="st0" d="M88.32,59.94c-2.33,0-4.01-1.78-4.01-5.29V42.04h-2.77v-1.1c1.09-0.13,2.41-0.34,3.97-2.8
							c1.2-1.95,1.42-3.56,1.6-4.74h1.24v7.54h4.23v1.1h-4.23v13.54c0,1.31,0.66,2.08,1.46,2.08c0.29,0,1.53-0.34,2.11-3.68h0.95
							C92.4,56.47,91.74,59.94,88.32,59.94z"/>
					</g>
					<g>
						<path class="st0" d="M0.52,13.85C0.28,13.85,0,13.65,0,13.27c0-0.44,0.42-0.55,0.52-0.55h0.9v-0.34
							c0-1.64,1.14-2.22,1.97-2.22c0.28,0,0.67,0.07,0.67,0.62c0,0.5-0.29,0.54-0.57,0.57c-0.46,0.06-0.92,0.25-0.92,1.38H3.7
							c0.24,0,0.51,0.21,0.51,0.58c0,0.38-0.33,0.55-0.51,0.55H2.56v5.09c0,0.36-0.28,0.62-0.58,0.62c-0.37,0-0.56-0.38-0.56-0.63
							v-5.07H0.52z"/>
						<path class="st0" d="M6.1,18.99c0,0.34-0.26,0.56-0.58,0.56c-0.38,0-0.56-0.33-0.56-0.57v-5.53c0-0.31,0-0.94,0.58-0.94
							c0.56,0,0.56,0.52,0.56,0.88v0.26c0.64-1.14,1.71-1.14,1.79-1.14c0.19,0,1.16,0.1,1.16,0.74c0,0.35-0.25,0.58-0.49,0.58
							c-0.11,0-0.58-0.1-0.68-0.1c-0.9,0-1.78,1.65-1.78,2.01V18.99z"/>
						<path class="st0" d="M15.3,16.04c0,1.63-0.7,3.51-2.86,3.51c-2.17,0-2.87-1.89-2.87-3.51c0-1.62,0.69-3.52,2.87-3.52
							C14.61,12.51,15.3,14.42,15.3,16.04z M10.77,16.04c0,0.78,0.21,2.27,1.67,2.27c1.52,0,1.67-1.64,1.67-2.21
							c0-0.92-0.25-2.34-1.67-2.34C11.06,13.76,10.77,15.09,10.77,16.04z"/>
						<path class="st0" d="M24,18.93c0,0.03-0.04,0.62-0.58,0.62c-0.5,0-0.56-0.56-0.56-0.63v-4.13c0-0.68-0.33-1.03-0.96-1.03
							c-1.1,0-1.22,0.96-1.22,1.29v3.88c0,0.08-0.06,0.62-0.58,0.62c-0.5,0-0.56-0.57-0.56-0.63v-4.17c0-0.6-0.32-0.97-0.95-0.97
							c-1.2,0-1.23,1.23-1.23,1.33v3.82c0,0.14-0.09,0.62-0.58,0.62c-0.46,0-0.56-0.5-0.56-0.63v-4.87c0-0.26-0.02-0.41-0.04-0.49
							c-0.08-0.34-0.09-0.41-0.09-0.51c0-0.34,0.25-0.54,0.53-0.54c0.24,0,0.64,0.16,0.72,0.73c0.18-0.24,0.58-0.73,1.61-0.73
							c1.03,0,1.35,0.52,1.48,0.73c0.18-0.24,0.56-0.73,1.68-0.73c1.35,0,1.9,0.86,1.9,1.72V18.93z"/>
					</g>
				</g>
			</g>
		</g>
	</g>
	<g>
		<g>
			<path class="st0" d="M113.98,59.18v-1h0.78c1.25,0,1.69-0.72,1.69-2.17v-7.85h-7.22v7.85c0,1.54,0.47,2.17,1.67,2.17h0.78v1
				h-7.64v-1h0.78c1.25,0,1.69-0.72,1.69-2.17V39.47c0-1.48-0.47-2.17-1.69-2.17h-0.78v-1.04h7.64v1.04h-0.78
				c-1.36,0-1.67,0.78-1.67,2.17v7.66h7.22v-7.66c0-1.48-0.47-2.17-1.69-2.17h-0.78v-1.04h7.64v1.04h-0.78
				c-1.36,0-1.67,0.78-1.67,2.17v16.54c0,1.54,0.47,2.17,1.67,2.17h0.78v1H113.98z"/>
			<path class="st0" d="M123.41,58.18h0.73c1.25,0,1.67-0.72,1.67-2.17V39.47c0-1.51-0.47-2.17-1.67-2.17h-0.73v-1.04h6.84
				c5.45,0,8.75,5.18,8.75,11.55c0,5.93-2.73,11.36-8.82,11.36h-6.77V58.18z M130.23,37.3c-1.32,0-1.67,0.69-1.67,2.17v16.54
				c0,1.48,0.47,2.17,1.67,2.17c0.94,0,2.4,0,3.78-1.85c1.58-2.07,2-5.43,2-8.66c0-7.82-2.21-10.36-5.38-10.36H130.23z"/>
		</g>
	</g>
</g>
</svg>
