{
    "name": "official",
    "url": "http://macaroni-wp.com",
    "title": "フロムファースト高松 | 高松市の建築条件（業者指定）なしの売土地・分譲地・不動産情報",
    "des": "フロムファースト高松は建築条件（業者指定）なしの分譲地・売土地などの不動産・物件情報を検索できます。",
    "keywords": "",
    "fb_admin": "",
    "ga": "UA-162047585-1",
    "site_tree": [
        {
            "name": "article-map",
            "title": "マップから分譲地を探す",
            "gnav": false,
            "children": [
                {
                    "name": "article-map",
                    "title": "マップから分譲地を探す"
                }
            ]
        },
        {
            "name": "article-eria",
            "title": "中学校区から分譲地を探す",
            "gnav": false,
            "children": [
                {
                    "name": "article-eria",
                    "title": "中学校区から分譲地を探す"
                }
            ]
        },
        {
            "name": "article",
            "title": "中学校区から分譲地を探す",
            "gnav": false,
            "children": [
                {
                    "name": "article",
                    "title": "中学校区から分譲地を探す"
                }
            ]
        },
        {
            "name": "article-detail",
            "title": "分譲地情報",
            "gnav": false,
            "children": [
                {
                    "name": "article-detail",
                    "title": "分譲地情報"
                }
            ]
        },
        {
            "name": "news",
            "title": "新着情報",
            "gnav": false,
            "children": [
                {
                    "name": "news",
                    "title": "新着情報"
                },
                {
                    "name": "news-detail",
                    "title": "新着情報"
                }
            ]
        },
        {
            "name": "kagawa-iegallery",
            "title": "かがわ家ぎゃらりぃ",
            "gnav": false,
            "children": [
                {
                    "name": "kagawa-iegallery",
                    "title": "かがわ家ぎゃらりぃ"
                },
                {
                    "name": "kagawa-iegallery-architect",
                    "title": "建築家"
                },
                {
                    "name": "kagawa-iegallery-corporation",
                    "title": "工務店"
                },
                {
                    "name": "kagawa-iegallery-maker",
                    "title": "大手ハウスメーカー"
                },
                {
                    "name": "kagawa-iegallery-builder",
                    "title": "ビルダー"
                },
                {
                    "name": "kagawa-iegallery-detail",
                    "title": "実例写真集"
                }
            ]
        },
        {
            "name": "gallery",
            "title": "実例写真集",
            "gnav": false,
            "children": [
                {
                    "name": "gallery-detail",
                    "title": "実例写真集"
                }
            ]
        },
        {
            "name": "modelhouse",
            "title": "モデルハウス見学会",
            "gnav": false,
            "children": [
                {
                    "name": "modelhouse-detail",
                    "title": "モデルハウス見学会"
                }
            ]
        },
        {
            "name": "labo_architect",
            "title": "建築家と創る家 -建築家からのプレゼン展-",
            "gnav": false,
            "children": [
                {
                    "name": "labo_architect",
                    "title": "建築家と創る家 -建築家からのプレゼン展-"
                },
                {
                    "name": "labo_architect-detail",
                    "title": "建築家と創る家 -建築家からのプレゼン展-"
                }
            ]
        },
        {
            "name": "labo_builder",
            "title": "工務店と創る家 -工務店からのプレゼン展-",
            "gnav": false,
            "children": [
                {
                    "name": "labo_builder",
                    "title": "工務店と創る家 -工務店からのプレゼン展-"
                },
                {
                    "name": "labo_builder-detail",
                    "title": "工務店と創る家 -工務店からのプレゼン展-"
                }
            ]
        },
        {
            "name": "presentation",
            "title": "建築家・工務店からのプレゼン展",
            "gnav": false,
            "children": [
                {
                    "name": "presentation",
                    "title": "建築家・工務店からのプレゼン展"
                }
            ]
        },
        {
            "name": "contact-form",
            "title": "お問い合わせ",
            "gnav": false,
            "children": [
                {
                    "name": "contact-form",
                    "title": "お問い合わせ"
                },
                {
                    "name": "contact-form-confirm",
                    "title": "お問い合わせ"
                },
                {
                    "name": "contact-form-thanks",
                    "title": "お問い合わせ"
                }
            ]
        },
        {
            "name": "consultation",
            "title": "ご相談フォーム",
            "gnav": false,
            "children": [
                {
                    "name": "consultation",
                    "title": "ご相談フォーム"
                },
                {
                    "name": "consultation-confirm",
                    "title": "ご相談フォーム"
                },
                {
                    "name": "consultation-thanks",
                    "title": "ご相談フォーム"
                }
            ]
        },
        {
            "name": "company",
            "title": "会社概要",
            "gnav": false,
            "children": [
                {
                    "name": "company",
                    "title": "会社概要"
                }
            ]
        },
        {
            "name": "qa",
            "title": "住まいづくりのQ&A",
            "gnav": false,
            "children": [
                {
                    "name": "qa",
                    "title": "住まいづくりのQ&A"
                }
            ]
        },
        {
            "name": "privacy",
            "title": "プライバシーポリシー",
            "gnav": false,
            "children": [
                {
                    "name": "privacy",
                    "title": "プライバシーポリシー"
                }
            ]
        },
        {
            "name": "request",
            "title": "資料請求",
            "children": [
                {
                    "name": "request-confirm",
                    "title": "確認画面"
                },
                {
                    "name": "request-thanks",
                    "title": "完了画面"
                }
            ]
        }
    ],
    "sns_list": [
        {
            "name": "facebook",
            "link": ""
        }
    ]
}
