<?xml version="1.0" encoding="utf-8"?>
<!-- Generator: Adobe Illustrator 24.0.3, SVG Export Plug-In . SVG Version: 6.00 Build 0)  -->
<svg version="1.1" id="レイヤー_1" xmlns="http://www.w3.org/2000/svg" xmlns:xlink="http://www.w3.org/1999/xlink" x="0px"
	 y="0px" viewBox="0 0 134 140" style="enable-background:new 0 0 134 140;" xml:space="preserve">
<style type="text/css">
	.st0{fill:#E50012;}
	.st1{fill:#FFFFFF;}
</style>
<g>
	<polygon class="st0" points="134,69.4 134,140 0,0 70.3,0 	"/>
	<g>
		<g>
			<path class="st1" d="M79,38.3l-2.8-2.8l0.1,0.2c-0.7,0.2-1.5,0.5-2.2,0.6l3,3l-7.8,7.8c-0.6,0.6-1.1,0.8-1.7,0.5
				c-0.6-0.3-1.4-1-2.6-2.2c0.2-0.3,0.5-1,0.7-1.4c0.9,1,1.7,1.8,2,2.1c0.3,0.2,0.4,0.2,0.6,0l6.8-6.8l-2.9-2.9l-1.4,1.4
				c-0.3,0.3-0.3,0.4,0.1,0.7l1.2,1.2c0.3,0.3,0.5,0.3,1.4-0.5c0,0.3,0.3,0.8,0.5,1.2c-1.3,1.1-1.8,1.1-2.6,0.3L70,39.1
				c-1-1-1-1.5-0.1-2.4l1.4-1.4l-1.7-1.7c-1.9,1.5-3.4,1.8-6,0.2c0.2-0.3,0.3-0.9,0.2-1.3c2.2,1.5,3.3,1.3,4.8,0.1l-2.5-2.5
				l-8.2,8.2l-1-1l9.1-9.1l2.8,2.8c0.3-0.6,0.6-1.4,0.8-2.1l-2.7-2.7l1-1l5.5,5.5l1.3-1.3l1.1,1.1l-1.3,1.3l5.6,5.6L79,38.3z
				 M62.2,39.6l-0.9,0.9l-0.9-0.9l4.4-4.4l5.4,5.4l-3.5,3.5L62.2,39.6z M64.9,37L63,38.8l3.4,3.4l1.8-1.8L64.9,37z M73,35.2
				c0.7-0.2,1.5-0.5,2.2-0.7l-4.4-4.4c-0.2,0.7-0.5,1.5-0.8,2L69.7,32L73,35.2z"/>
			<path class="st1" d="M76.3,55.2l-3.2-3.2l-0.6,0.6l-0.9-0.9l4.7-4.7l4.1,4.1L76.3,55.2z M76.4,48.7L74,51.1l2.3,2.3l2.4-2.4
				L76.4,48.7z M85.3,55.8c-0.8,0.8-2.6,3.6-0.7,7.6c-0.4,0-1.1,0.2-1.5,0.3c-1.4-3.1-0.5-5.8,0.2-6.8c-1.1,0.7-3.8,1.4-7.2-0.2
				c0.1-0.3,0.2-1,0.2-1.4c4.4,2.1,7.1,0.4,8-0.4l2.1-2.1l1.1,1.1L85.3,55.8z M78.2,45l4.1,4.1L81.5,50l-4.1-4.1L78.2,45z
				 M80.1,43.2l4.1,4.1l-0.8,0.8L79.2,44L80.1,43.2z M79.3,52.9c1.2,0.2,2.6-0.3,3.8-1.1l0.7,1.1c-1.3,0.9-2.8,1.6-4.3,1.4
				L79.3,52.9z M85.7,46.7l-5.3-5.3l0.8-0.8l5.3,5.3L85.7,46.7z M87,44.3l-4-4l0.8-0.8l4,4L87,44.3z M89.5,56.8
				c0-1.3-0.4-3.6-0.9-5.6c-1.7,0.6-3.4,0.5-5.6-0.6c0.2-0.4,0.3-1,0.3-1.5c3.8,2,5.9,0.7,9-2.1l1,1c-1.2,1.1-2.3,2-3.4,2.7
				c0.5,2,1,4.6,1.1,6.1L89.5,56.8z M84.7,58.1c1.1-0.2,2.8-0.7,3.8-1.2l0.5,1.4c-1.3,0.3-2.9,0.8-4,0.9L84.7,58.1z M90,46.9
				c-1.1,0.8-2.5,1.5-3.8,1.4L85.8,47c1.1,0.1,2.4-0.4,3.4-1.2L90,46.9z M94.9,52.1c-1.2,0.3-2.6,0.7-3.6,0.8l-0.3-1.1
				c1-0.2,2.5-0.7,3.5-1.1L94.9,52.1z"/>
			<path class="st1" d="M108,67.7l-6.6,6.6l-1.1-1.1l0.8-0.8l-4.1-4.1L92.5,73l-1.1-1.1l4.6-4.6l-4-4l-0.9,0.9l-1-1l6.7-6.7l5.1,5.1
				l2.5-2.5l1.1,1.1l-2.5,2.5L108,67.7z M97.1,66.3l3.7-3.7l-4-4L93,62.3L97.1,66.3z M102.2,71.4l3.7-3.7l-4.1-4.1l-3.7,3.7
				L102.2,71.4z"/>
		</g>
	</g>
</g>
</svg>
