<?xml version="1.0" encoding="utf-8"?>
<!-- Generator: Adobe Illustrator 24.0.3, SVG Export Plug-In . SVG Version: 6.00 Build 0)  -->
<svg version="1.1" id="レイヤー_1" xmlns="http://www.w3.org/2000/svg" xmlns:xlink="http://www.w3.org/1999/xlink" x="0px"
	 y="0px" viewBox="0 0 134 140" style="enable-background:new 0 0 134 140;" xml:space="preserve">
<style type="text/css">
	.st0{fill:#E50012;}
	.st1{fill:#FFFFFF;}
</style>
<g>
	<polygon class="st0" points="134,69.4 134,140 0,0 70.3,0 	"/>
	<g>
		<g>
			<path class="st1" d="M66.5,36.1c-3.1,2.7-5.6,3.6-10,1c0.2-0.4,0.3-1.1,0.3-1.5c4,2.5,5.9,1.7,8.6-0.6L66.5,36.1z M71.4,43.2
				l1.8-1.8L63.8,32L62,33.8l-1-1l2.8-2.8l11.5,11.5l-2.8,2.8L71.4,43.2z M68.2,46.3c0.5,0.5,0.8,0.4,2.5-1.2c0.1,0.4,0.3,1,0.6,1.4
				c-2,1.8-2.8,2-3.9,0.9l-2-2c-1.3-1.3-1.3-1.9-0.2-3.1l3.8-3.8l1,1l-3.8,3.8c-0.4,0.4-0.4,0.6,0.2,1.1L68.2,46.3z M72.3,31.7
				l-5.5-5.5l1-1l5.5,5.5l1.4-1.4l1.1,1.1l-1.4,1.4l5.6,5.6l-1,1l-5.6-5.6L72,34.2l4.3,4.3l-0.9,0.9l-9.6-9.6l0.9-0.9l4.2,4.2
				L72.3,31.7z"/>
			<path class="st1" d="M77.1,48.1c-1.6,1.1-3.3,2.2-4.7,2.6c0-0.3-0.2-0.9-0.4-1.3c1.3-0.4,2.9-1.3,4.3-2.4L77.1,48.1z M83.3,47
				c-0.3,1.5-0.9,3.3-1.5,4.3l-1.2-0.4c0.2-0.3,0.4-0.7,0.6-1.1l-1.3-1.2l-5.9,5.9L73,53.6l5.9-5.9c-0.9-0.8-1.7-1.5-2.4-2.2l0.9-1
				l1,0.9c0.7-0.1,1.4-0.2,2.2-0.3c0.2-1.1,0.3-2.6,0.2-3.9l1.2-0.1c0,0.2,0,0.5,0,0.7c1.3-0.3,2.8-0.9,3.9-1.3l0.5,1.3
				c-1.4,0.4-3.1,0.9-4.4,1.2c0,0.7,0,1.3-0.1,1.9c1.5-0.3,2.9-0.7,4.1-1.1l0.5,1.3c-2.1,0.5-4.9,1-7,1.3c0.7,0.7,1.5,1.4,2.3,2.2
				c0.2-0.6,0.4-1.3,0.6-1.9L83.3,47z M80.3,50.8c-0.5,1.3-1.2,2.8-1.8,3.7L77.4,54c0.6-0.9,1.4-2.4,1.8-3.7L80.3,50.8z M93.7,53.5
				c0,0-0.4,0.4-0.6,0.5c-6.5,6-8.9,8-10.2,8.1c-0.7,0.1-1.2-0.1-1.8-0.6c-0.5-0.4-1.4-1.3-2.1-2.2c0.3-0.3,0.6-0.8,0.6-1.3
				c0.9,1,1.7,1.9,2.1,2.2c0.3,0.3,0.5,0.4,0.8,0.4c0.9,0,3.4-1.9,9-7.2L87,48.8c-1.2,0.4-2.3,0.6-3.4,0.7c0-0.4-0.2-1.2-0.3-1.6
				c2.3-0.1,5-1,7.4-2.4l0.8,1.3c-1,0.6-2.1,1-3.1,1.4L93.7,53.5z M82.9,56.1c0.6-1.2,1.1-3.4,1.4-5.2l1.3,0.4
				c-0.2,1.8-0.7,4-1.2,5.2L82.9,56.1z"/>
			<path class="st1" d="M94,65c-2.2,0.8-4.9,1.6-7,2.2l-0.2-1.6c1.8-0.4,4.7-1.2,7.1-2.1L94,65z M102.8,70l1,1l-6.7,6.7l-1-1
				l2.7-2.7l-4.6-4.6c-1.3,0.7-2.8,1.2-4.6,1c0-0.4,0-1-0.1-1.4c2.9,0.4,4.9-1.2,6.2-2.5l1.8-1.8l1,1l-0.8,0.8l4.4,4.4L102.8,70z
				 M94.8,61.9c-0.1-1-0.6-2.8-1.1-4.1l1.4-0.2c0.6,1.3,1.1,3,1.2,4.1L94.8,61.9z M99.7,73l1.3-1.3l-4.4-4.4l-0.1,0.1
				c-0.4,0.4-0.8,0.8-1.3,1.2L99.7,73z M107.2,66.7c-1.3,0.3-2.6,0.4-3.9,0.2c0.6,1.6,1.6,3.1,2.7,4.7c-0.5,0-1.1,0.1-1.5,0.3
				c-1.2-1.8-2.1-3.6-2.7-5.4C99.9,66,97.9,65,96,63.7c0.1-0.3,0.3-1,0.4-1.4c1.7,1.2,3.4,2.2,5.1,2.8c-0.3-1.3-0.3-2.7,0-4.2
				l-1.4-1.4l0.9-0.9l3.9,3.9l1.5-1.5l1.1,1.1l-1.5,1.5l3.9,3.9l-0.9,0.9L107.2,66.7z M99.2,58.9c0-1-0.4-2.8-0.9-4.1l1.3-0.2
				c0.5,1.3,1,3,1,4.1L99.2,58.9z M102.6,62.1c-0.1,1.2,0,2.3,0.3,3.4c1.1,0.2,2.2,0.3,3.2,0.1L102.6,62.1z"/>
		</g>
	</g>
</g>
</svg>
