<?xml version="1.0" encoding="utf-8"?>
<!-- Generator: Adobe Illustrator 24.0.3, SVG Export Plug-In . SVG Version: 6.00 Build 0)  -->
<svg version="1.1" id="レイヤー_1" xmlns="http://www.w3.org/2000/svg" xmlns:xlink="http://www.w3.org/1999/xlink" x="0px"
	 y="0px" viewBox="0 0 258 24" style="enable-background:new 0 0 258 24;" xml:space="preserve">
<style type="text/css">
	.st0{fill:#1A96FA;}
</style>
<g>
	<path class="st0" d="M0,0.3h2.1L11.7,13l9.6-12.7h2.1v23.3h-2.5v-19L11.7,17L2.5,4.7v19H0V0.3z"/>
	<path class="st0" d="M30.5,12c0-6.7,5.3-12,11.9-12s11.9,5.3,11.9,12S49,24,42.4,24S30.5,18.7,30.5,12z M51.8,12
		c0-5.5-4.1-9.7-9.4-9.7S33,6.5,33,12s4.1,9.7,9.4,9.7S51.8,17.5,51.8,12z"/>
	<path class="st0" d="M61.3,0.3h7.3c6.8,0,12,5.3,12,11.7c0,6.3-5.3,11.7-12,11.7h-7.3V0.3z M68.6,21.3c5.4,0,9.6-4.2,9.6-9.3
		S74,2.7,68.6,2.7h-4.8v18.7H68.6z"/>
	<path class="st0" d="M87.7,0.3h15.8v2.3H90.2v7.7h10.7v2.3H90.2v8.7h13.7v2.3H87.7V0.3z"/>
	<path class="st0" d="M110.5,0.3h2.5v21h11.9v2.3h-14.3V0.3z"/>
	<path class="st0" d="M139.1,0.3h2.5v10.3h12.9V0.3h2.5v23.3h-2.5V13h-12.9v10.7h-2.5V0.3z"/>
	<path class="st0" d="M164,12c0-6.7,5.3-12,11.9-12c6.6,0,11.9,5.3,11.9,12s-5.3,12-11.9,12C169.3,24,164,18.7,164,12z M185.3,12
		c0-5.5-4.1-9.7-9.4-9.7c-5.3,0-9.4,4.2-9.4,9.7s4.1,9.7,9.4,9.7C181.2,21.7,185.3,17.5,185.3,12z"/>
	<path class="st0" d="M194.5,14.5V0.3h2.5v14.2c0,4.2,3,7.2,6.9,7.2s6.9-3,6.9-7.2V0.3h2.5v14.2c0,5.3-4.1,9.5-9.4,9.5
		S194.5,19.8,194.5,14.5z"/>
	<path class="st0" d="M219.6,20.5l1.5-1.7c0,0,2,2.9,6.3,2.9c3.5,0,5.3-1.8,5.3-4.3c0-6-12.5-2.7-12.5-11c0-3.4,2.8-6.3,7.4-6.3
		c4.4,0,6.8,3,6.8,3l-1.6,1.7c0,0-1.7-2.3-5.1-2.3c-3.2,0-4.9,1.9-4.9,4c0,6,12.5,2.7,12.5,11c0,3.8-2.8,6.7-7.7,6.7
		C222.1,24,219.6,20.5,219.6,20.5z"/>
	<path class="st0" d="M241.8,0.3h15.8v2.3h-13.4v7.7H255v2.3h-10.7v8.7H258v2.3h-16.2V0.3z"/>
</g>
</svg>
